simulation/qsim/UNITL.msim.vcd
$comment
	File created using the following command:
		vcd file UNITL.msim.vcd -direction
$end
$date
	Wed Aug 07 22:37:36 2024
$end
$version
	ModelSim Version 10.1d
$end
$timescale
	1ps
$end
$scope module TopLevel_vlg_vec_tst $end
$var reg 1 ! ADD $end
$var reg 1 " AND $end
$var reg 1 # clk $end
$var reg 1 $ HLT $end
$var reg 1 % JMP $end
$var reg 1 & JN $end
$var reg 1 ' JZ $end
$var reg 1 ( LDA $end
$var reg 1 ) N $end
$var reg 1 * NOP $end
$var reg 1 + NOT $end
$var reg 1 , OR $end
$var reg 1 - STA $end
$var reg 1 . Z $end
$var wire 1 / charge_AC $end
$var wire 1 0 charge_NZ $end
$var wire 1 1 charge_PC $end
$var wire 1 2 charge_RDM $end
$var wire 1 3 charge_REM $end
$var wire 1 4 charge_RI $end
$var wire 1 5 goto_t0 $end
$var wire 1 6 inc_PC $end
$var wire 1 7 read $end
$var wire 1 8 sel $end
$var wire 1 9 ULA_ADD $end
$var wire 1 : ULA_AND $end
$var wire 1 ; ULA_NOT $end
$var wire 1 < ULA_OR $end
$var wire 1 = ULA_Y $end
$var wire 1 > write $end
$var wire 1 ? sampler $end
$scope module i1 $end
$var wire 1 @ gnd $end
$var wire 1 A vcc $end
$var wire 1 B unknown $end
$var tri1 1 C devclrn $end
$var tri1 1 D devpor $end
$var tri1 1 E devoe $end
$var wire 1 F inst1|inst13|inst8|inst~combout $end
$var wire 1 G inst1|inst13|inst7|inst~combout $end
$var wire 1 H Z~input_o $end
$var wire 1 I clk~input_o $end
$var wire 1 J clk~inputclkctrl_outclk $end
$var wire 1 K charge_REM~output_o $end
$var wire 1 L goto_t0~output_o $end
$var wire 1 M inc_PC~output_o $end
$var wire 1 N charge_RI~output_o $end
$var wire 1 O sel~output_o $end
$var wire 1 P charge_RDM~output_o $end
$var wire 1 Q read~output_o $end
$var wire 1 R write~output_o $end
$var wire 1 S ULA_Y~output_o $end
$var wire 1 T ULA_ADD~output_o $end
$var wire 1 U ULA_OR~output_o $end
$var wire 1 V ULA_NOT~output_o $end
$var wire 1 W ULA_AND~output_o $end
$var wire 1 X charge_AC~output_o $end
$var wire 1 Y charge_NZ~output_o $end
$var wire 1 Z charge_PC~output_o $end
$var wire 1 [ ADD~input_o $end
$var wire 1 \ LDA~input_o $end
$var wire 1 ] AND~input_o $end
$var wire 1 ^ inst|inst12~0_combout $end
$var wire 1 _ STA~input_o $end
$var wire 1 ` inst|inst50~0_combout $end
$var wire 1 a JZ~input_o $end
$var wire 1 b N~input_o $end
$var wire 1 c JN~input_o $end
$var wire 1 d inst|inst~0_combout $end
$var wire 1 e JMP~input_o $end
$var wire 1 f inst1|inst11|inst2~0_combout $end
$var wire 1 g HLT~input_o $end
$var wire 1 h inst1|inst11|inst2~q $end
$var wire 1 i inst|inst9~0_combout $end
$var wire 1 j inst|inst46~0_combout $end
$var wire 1 k NOT~input_o $end
$var wire 1 l NOP~input_o $end
$var wire 1 m inst1|inst15|inst7|inst5~0_combout $end
$var wire 1 n inst|inst46~1_combout $end
$var wire 1 o inst1|inst|inst4|inst2~combout $end
$var wire 1 p inst1|inst11|inst4~q $end
$var wire 1 q inst|inst50~combout $end
$var wire 1 r inst1|inst|inst3|inst2~combout $end
$var wire 1 s inst1|inst11|inst3~q $end
$var wire 1 t inst1|inst15|inst5|inst~0_combout $end
$var wire 1 u inst|inst~combout $end
$var wire 1 v inst|inst9~1_combout $end
$var wire 1 w inst|inst13~combout $end
$var wire 1 x inst|inst46~2_combout $end
$var wire 1 y inst|inst14~0_combout $end
$var wire 1 z inst|inst15~0_combout $end
$var wire 1 { inst|inst15~1_combout $end
$var wire 1 | inst1|inst15|inst6|inst5~0_combout $end
$var wire 1 } inst|inst14~1_combout $end
$var wire 1 ~ inst1|inst15|inst7|inst~0_combout $end
$var wire 1 !! inst|inst27~0_combout $end
$var wire 1 "! inst|inst29~0_combout $end
$var wire 1 #! inst|inst29~combout $end
$var wire 1 $! inst|inst32~combout $end
$var wire 1 %! inst|inst33~combout $end
$var wire 1 &! inst|inst34~combout $end
$var wire 1 '! OR~input_o $end
$var wire 1 (! inst|inst35~combout $end
$var wire 1 )! inst|inst37~combout $end
$var wire 1 *! inst|inst36~combout $end
$var wire 1 +! inst1|inst15|inst9|inst5~0_combout $end
$var wire 1 ,! inst|inst39~combout $end
$upscope $end
$upscope $end
$enddefinitions $end
#0
$dumpvars
0!
1"
0#
0$
0%
0&
0'
0(
0)
0*
0+
0,
0-
0.
0/
00
01
02
13
04
05
06
07
08
09
0:
0;
0<
0=
0>
x?
0@
1A
xB
1C
1D
1E
0F
0G
0H
0I
0J
1K
0L
0M
0N
0O
0P
0Q
0R
0S
0T
0U
0V
0W
0X
0Y
0Z
0[
0\
1]
0^
0_
1`
0a
0b
0c
1d
0e
1f
0g
0h
0i
0j
0k
0l
0m
0n
0o
0p
0q
0r
0s
1t
1u
0v
1w
0x
1y
0z
0{
0|
0}
0~
0!!
0"!
0#!
0$!
0%!
0&!
0'!
0(!
0)!
0*!
0+!
0,!
$end
#10000
1#
1I
1J
0?
1h
1"!
1|
0t
0f
1G
1r
1#!
1}
0w
1Q
1M
0K
17
16
03
#20000
0#
0I
0J
1?
#30000
1#
1I
1J
0?
1s
0h
0"!
0|
1f
1~
1N
14
0#!
0}
0Q
0M
07
06
#40000
0#
0I
0J
1?
#50000
1#
1I
1J
0?
1h
1m
0f
0G
1F
0~
0r
1o
0N
04
1w
1K
13
#60000
0#
0I
0J
1?
#70000
1#
1I
1J
0?
0s
1p
0h
1z
0m
1f
1{
1#!
0w
1Q
0K
17
03
1}
1M
16
#80000
0#
0I
0J
1?
#90000
1#
1I
1J
0?
1h
0z
1i
0f
1G
0{
1r
0#!
1v
0Q
1O
07
18
0}
1w
0M
1K
06
13
#100000
0#
0I
0J
1?
#110000
1#
1I
1J
0?
1s
0h
1"!
0i
1f
1#!
0v
1Q
0O
17
08
0w
0K
03
#120000
0#
0I
0J
1?
#130000
1#
1I
1J
0?
1h
1+!
0"!
1q
0f
0G
0F
1*!
0r
0o
1W
1:
1,!
0#!
1x
1Y
1X
0Q
1L
10
1/
07
15
#140000
0#
0I
0J
1?
#150000
1#
1I
1J
0?
0s
0p
0h
0+!
1t
0q
1f
0*!
0W
0:
0,!
1w
0x
0Y
0X
1K
0L
00
0/
13
05
#160000
0#
0I
0J
1?
#170000
1#
1I
1J
0?
1h
1"!
1|
0t
0f
1G
1r
1#!
1}
0w
1Q
1M
0K
17
16
03
#180000
0#
0I
0J
1?
#190000
1#
1I
1J
0?
1s
0h
0"!
0|
1f
1~
1N
14
0#!
0}
0Q
0M
07
06
#200000
0#
0I
0J
1?
#210000
1#
1I
1J
0?
1h
1m
0f
0G
1F
0~
0r
1o
0N
04
1w
1K
13
#220000
0#
0I
0J
1?
#230000
1#
1I
1J
0?
0s
1p
0h
1z
0m
1f
1{
1#!
0w
1Q
0K
17
03
1}
1M
16
#240000
0#
0I
0J
1?
#250000
1#
1I
1J
0?
1h
0z
1i
0f
1G
0{
1r
0#!
1v
0Q
1O
07
18
0}
1w
0M
1K
06
13
#260000
0#
0I
0J
1?
#270000
1#
1I
1J
0?
1s
0h
1"!
0i
1f
1#!
0v
1Q
0O
17
08
0w
0K
03
#280000
0#
0I
0J
1?
#290000
1#
1I
1J
0?
1h
1+!
0"!
1q
0f
0G
0F
1*!
0r
0o
1W
1:
1,!
0#!
1x
1Y
1X
0Q
1L
10
1/
07
15
#300000
0#
0I
0J
1?
#310000
1#
1I
1J
0?
0s
0p
0h
0+!
1t
0q
1f
0*!
0W
0:
0,!
1w
0x
0Y
0X
1K
0L
00
0/
13
05
#320000
0#
0I
0J
1?
#330000
1#
1I
1J
0?
1h
1"!
1|
0t
0f
1G
1r
1#!
1}
0w
1Q
1M
0K
17
16
03
#340000
0#
0I
0J
1?
#350000
1#
1I
1J
0?
1s
0h
0"!
0|
1f
1~
1N
14
0#!
0}
0Q
0M
07
06
#360000
0#
0I
0J
1?
#370000
1#
1I
1J
0?
1h
1m
0f
0G
1F
0~
0r
1o
0N
04
1w
1K
13
#380000
0#
0I
0J
1?
#390000
1#
1I
1J
0?
0s
1p
0h
1z
0m
1f
1{
1#!
0w
1Q
0K
17
03
1}
1M
16
#400000
0#
0I
0J
1?
#410000
1#
1I
1J
0?
1h
0z
1i
0f
1G
0{
1r
0#!
1v
0Q
1O
07
18
0}
1w
0M
1K
06
13
#420000
0#
0I
0J
1?
#430000
1#
1I
1J
0?
1s
0h
1"!
0i
1f
1#!
0v
1Q
0O
17
08
0w
0K
03
#440000
0#
0I
0J
1?
#450000
1#
1I
1J
0?
1h
1+!
0"!
1q
0f
0G
0F
1*!
0r
0o
1W
1:
1,!
0#!
1x
1Y
1X
0Q
1L
10
1/
07
15
#460000
0#
0I
0J
1?
#470000
1#
1I
1J
0?
0s
0p
0h
0+!
1t
0q
1f
0*!
0W
0:
0,!
1w
0x
0Y
0X
1K
0L
00
0/
13
05
#480000
0#
0I
0J
1?
#490000
1#
1I
1J
0?
1h
1"!
1|
0t
0f
1G
1r
1#!
1}
0w
1Q
1M
0K
17
16
03
#500000
0#
0I
0J
1?
#510000
1#
1I
1J
0?
1s
0h
0"!
0|
1f
1~
1N
14
0#!
0}
0Q
0M
07
06
#520000
0#
0I
0J
1?
#530000
1#
1I
1J
0?
1h
1m
0f
0G
1F
0~
0r
1o
0N
04
1w
1K
13
#540000
0#
0I
0J
1?
#550000
1#
1I
1J
0?
0s
1p
0h
1z
0m
1f
1{
1#!
0w
1Q
0K
17
03
1}
1M
16
#560000
0#
0I
0J
1?
#570000
1#
1I
1J
0?
1h
0z
1i
0f
1G
0{
1r
0#!
1v
0Q
1O
07
18
0}
1w
0M
1K
06
13
#580000
0#
0I
0J
1?
#590000
1#
1I
1J
0?
1s
0h
1"!
0i
1f
1#!
0v
1Q
0O
17
08
0w
0K
03
#600000
0#
0I
0J
1?
#610000
1#
1I
1J
0?
1h
1+!
0"!
1q
0f
0G
0F
1*!
0r
0o
1W
1:
1,!
0#!
1x
1Y
1X
0Q
1L
10
1/
07
15
#620000
0#
0I
0J
1?
#630000
1#
1I
1J
0?
0s
0p
0h
0+!
1t
0q
1f
0*!
0W
0:
0,!
1w
0x
0Y
0X
1K
0L
00
0/
13
05
#640000
0#
0I
0J
1?
#650000
1#
1I
1J
0?
1h
1"!
1|
0t
0f
1G
1r
1#!
1}
0w
1Q
1M
0K
17
16
03
#660000
0#
0I
0J
1?
#670000
1#
1I
1J
0?
1s
0h
0"!
0|
1f
1~
1N
14
0#!
0}
0Q
0M
07
06
#680000
0#
0I
0J
1?
#690000
1#
1I
1J
0?
1h
1m
0f
0G
1F
0~
0r
1o
0N
04
1w
1K
13
#700000
0#
0I
0J
1?
#710000
1#
1I
1J
0?
0s
1p
0h
1z
0m
1f
1{
1#!
0w
1Q
0K
17
03
1}
1M
16
#720000
0#
0I
0J
1?
#730000
1#
1I
1J
0?
1h
0z
1i
0f
1G
0{
1r
0#!
1v
0Q
1O
07
18
0}
1w
0M
1K
06
13
#740000
0#
0I
0J
1?
#750000
1#
1I
1J
0?
1s
0h
1"!
0i
1f
1#!
0v
1Q
0O
17
08
0w
0K
03
#760000
0#
0I
0J
1?
#770000
1#
1I
1J
0?
1h
1+!
0"!
1q
0f
0G
0F
1*!
0r
0o
1W
1:
1,!
0#!
1x
1Y
1X
0Q
1L
10
1/
07
15
#780000
0#
0I
0J
1?
#790000
1#
1I
1J
0?
0s
0p
0h
0+!
1t
0q
1f
0*!
0W
0:
0,!
1w
0x
0Y
0X
1K
0L
00
0/
13
05
#800000
0#
0I
0J
1?
#810000
1#
1I
1J
0?
1h
1"!
1|
0t
0f
1G
1r
1#!
1}
0w
1Q
1M
0K
17
16
03
#820000
0#
0I
0J
1?
#830000
1#
1I
1J
0?
1s
0h
0"!
0|
1f
1~
1N
14
0#!
0}
0Q
0M
07
06
#840000
0#
0I
0J
1?
#850000
1#
1I
1J
0?
1h
1m
0f
0G
1F
0~
0r
1o
0N
04
1w
1K
13
#860000
0#
0I
0J
1?
#870000
1#
1I
1J
0?
0s
1p
0h
1z
0m
1f
1{
1#!
0w
1Q
0K
17
03
1}
1M
16
#880000
0#
0I
0J
1?
#890000
1#
1I
1J
0?
1h
0z
1i
0f
1G
0{
1r
0#!
1v
0Q
1O
07
18
0}
1w
0M
1K
06
13
#900000
0#
0I
0J
1?
#910000
1#
1I
1J
0?
1s
0h
1"!
0i
1f
1#!
0v
1Q
0O
17
08
0w
0K
03
#920000
0#
0I
0J
1?
#930000
1#
1I
1J
0?
1h
1+!
0"!
1q
0f
0G
0F
1*!
0r
0o
1W
1:
1,!
0#!
1x
1Y
1X
0Q
1L
10
1/
07
15
#940000
0#
0I
0J
1?
#950000
1#
1I
1J
0?
0s
0p
0h
0+!
1t
0q
1f
0*!
0W
0:
0,!
1w
0x
0Y
0X
1K
0L
00
0/
13
05
#960000
0#
0I
0J
1?
#970000
1#
1I
1J
0?
1h
1"!
1|
0t
0f
1G
1r
1#!
1}
0w
1Q
1M
0K
17
16
03
#980000
0#
0I
0J
1?
#990000
1#
1I
1J
0?
1s
0h
0"!
0|
1f
1~
1N
14
0#!
0}
0Q
0M
07
06
