simulation/qsim/UNITL.msim.vcd
$comment
	File created using the following command:
		vcd file UNITL.msim.vcd -direction
$end
$date
	Thu Aug 22 18:13:15 2024
$end
$version
	ModelSim Version 10.1d
$end
$timescale
	1ps
$end
$scope module FSM1_vlg_vec_tst $end
$var reg 1 ! CLK $end
$var reg 1 " start $end
$var wire 1 # GREEN $end
$var wire 1 $ RED $end
$var wire 1 % t_out [7] $end
$var wire 1 & t_out [6] $end
$var wire 1 ' t_out [5] $end
$var wire 1 ( t_out [4] $end
$var wire 1 ) t_out [3] $end
$var wire 1 * t_out [2] $end
$var wire 1 + t_out [1] $end
$var wire 1 , t_out [0] $end
$var wire 1 - YELLOW $end
$var wire 1 . sampler $end
$scope module i1 $end
$var wire 1 / gnd $end
$var wire 1 0 vcc $end
$var wire 1 1 unknown $end
$var tri1 1 2 devclrn $end
$var tri1 1 3 devpor $end
$var tri1 1 4 devoe $end
$var wire 1 5 GREEN~output_o $end
$var wire 1 6 YELLOW~output_o $end
$var wire 1 7 RED~output_o $end
$var wire 1 8 t_out[7]~output_o $end
$var wire 1 9 t_out[6]~output_o $end
$var wire 1 : t_out[5]~output_o $end
$var wire 1 ; t_out[4]~output_o $end
$var wire 1 < t_out[3]~output_o $end
$var wire 1 = t_out[2]~output_o $end
$var wire 1 > t_out[1]~output_o $end
$var wire 1 ? t_out[0]~output_o $end
$var wire 1 @ CLK~input_o $end
$var wire 1 A inst11~0_combout $end
$var wire 1 B inst11~q $end
$var wire 1 C start~input_o $end
$var wire 1 D inst|inst|inst3|inst2~0_combout $end
$var wire 1 E inst|inst11|inst3~q $end
$var wire 1 F inst|inst13|inst8|inst~combout $end
$var wire 1 G inst|inst|inst2|inst2~0_combout $end
$var wire 1 H inst|inst11|inst4~q $end
$var wire 1 I inst|inst15|inst7|inst5~0_combout $end
$var wire 1 J inst6|inst3|inst2~combout $end
$var wire 1 K inst1|inst3~q $end
$var wire 1 L inst6|inst4|inst2~0_combout $end
$var wire 1 M inst6|inst4|inst2~1_combout $end
$var wire 1 N inst1|inst4~q $end
$var wire 1 O inst6|inst5|inst2~0_combout $end
$var wire 1 P inst6|inst5|inst2~1_combout $end
$var wire 1 Q inst1|inst5~q $end
$var wire 1 R inst|inst|inst1|inst2~combout $end
$var wire 1 S inst|inst11|inst2~q $end
$var wire 1 T inst6|inst2|inst~0_combout $end
$var wire 1 U inst6|inst2|inst~1_combout $end
$var wire 1 V inst1|inst2~q $end
$var wire 1 W inst|inst15|inst9|inst5~0_combout $end
$var wire 1 X inst|inst15|inst9|inst~0_combout $end
$var wire 1 Y inst|inst15|inst8|inst5~0_combout $end
$var wire 1 Z inst|inst15|inst8|inst~0_combout $end
$var wire 1 [ inst|inst15|inst7|inst~0_combout $end
$var wire 1 \ inst|inst15|inst6|inst5~0_combout $end
$var wire 1 ] inst|inst15|inst6|inst~0_combout $end
$upscope $end
$upscope $end
$enddefinitions $end
#0
$dumpvars
0!
0"
0#
0$
1,
0+
0*
0)
0(
0'
0&
0%
0-
x.
0/
10
x1
12
13
14
05
06
07
08
09
0:
0;
0<
0=
0>
1?
0@
1A
0B
0C
0D
0E
0F
0G
0H
0I
0J
0K
0L
0M
0N
0O
0P
0Q
1R
0S
0T
0U
0V
0W
0X
0Y
0Z
0[
0\
0]
$end
#10000
1"
1!
1C
1@
0.
1U
0R
1B
0A
1V
1T
15
1#
#20000
0"
0!
0C
0@
1.
1R
1O
#30000
1!
1@
0.
0B
1A
#40000
0!
0@
1.
#50000
1!
1@
0.
1B
0A
1S
1]
0R
1D
1\
0?
1>
0,
1+
#60000
0!
0@
1.
#70000
1!
1@
0.
0B
1A
#80000
0!
0@
1.
#90000
1!
1@
0.
1B
0A
0S
1E
1R
1P
0\
1[
0>
1=
0+
1*
#100000
0!
0@
1.
#110000
1!
1@
0.
0B
1A
#120000
0!
0@
1.
#130000
1!
1@
0.
1B
0A
1S
1Q
0T
0R
1F
0D
0[
1I
0U
1J
0=
1<
0*
1)
#140000
0!
0@
1.
#150000
1!
1@
0.
0B
1A
#160000
0!
0@
1.
#170000
1!
1@
0.
1B
0A
0S
0E
0V
1K
0]
0O
1L
0F
0P
0J
05
16
0#
1-
0I
1M
1?
0<
1,
0)
#180000
0!
0@
1.
#190000
1!
1@
0.
0B
1A
#200000
0!
0@
1.
#210000
1!
1@
0.
1B
0A
0Q
1N
0K
1R
1O
17
06
1$
0-
#220000
0!
0@
1.
#230000
1!
1@
0.
0B
1A
#240000
0!
0@
1.
#250000
1!
1@
0.
1B
0A
1S
1]
0R
0O
1D
1\
0?
1>
0,
1+
#260000
0!
0@
1.
#270000
1!
1@
0.
0B
1A
#280000
0!
0@
1.
#290000
1!
1@
0.
1B
0A
0S
1E
1R
1O
0\
1[
1P
0>
1=
0+
1*
#300000
0!
0@
1.
#310000
1!
1@
0.
0B
1A
#320000
0!
0@
1.
#330000
1!
1@
0.
1B
0A
1S
1Q
0R
0O
0L
1F
0D
0[
1I
0P
0M
1U
0=
1<
0*
1)
#340000
0!
0@
1.
#350000
1!
1@
0.
0B
1A
#360000
0!
0@
1.
#370000
1!
1@
0.
1B
0A
0S
0Q
0E
1V
0N
0]
1T
1R
1O
0F
1G
1J
0U
15
07
1#
0$
0I
1U
0G
0J
1?
0<
1,
0)
#380000
0!
0@
1.
#390000
1!
1@
0.
0B
1A
#400000
0!
0@
1.
#410000
1!
1@
0.
1B
0A
1S
1]
0R
1D
1\
0?
1>
0,
1+
#420000
0!
0@
1.
#430000
1!
1@
0.
0B
1A
#440000
0!
0@
1.
#450000
1!
1@
0.
1B
0A
0S
1E
1R
1P
0\
1[
0>
1=
0+
1*
#460000
0!
0@
1.
#470000
1!
1@
0.
0B
1A
#480000
0!
0@
1.
#490000
1!
1@
0.
1B
0A
1S
1Q
0T
0R
1F
0D
0[
1I
0U
1J
0=
1<
0*
1)
#500000
0!
0@
1.
#510000
1!
1@
0.
0B
1A
#520000
0!
0@
1.
#530000
1!
1@
0.
1B
0A
0S
0E
0V
1K
0]
0O
1L
0F
0P
0J
05
16
0#
1-
0I
1M
1?
0<
1,
0)
#540000
0!
0@
1.
#550000
1!
1@
0.
0B
1A
#560000
0!
0@
1.
#570000
1!
1@
0.
1B
0A
0Q
1N
0K
1R
1O
17
06
1$
0-
#580000
0!
0@
1.
#590000
1!
1@
0.
0B
1A
#600000
0!
0@
1.
#610000
1!
1@
0.
1B
0A
1S
1]
0R
0O
1D
1\
0?
1>
0,
1+
#620000
0!
0@
1.
#630000
1!
1@
0.
0B
1A
#640000
0!
0@
1.
#650000
1!
1@
0.
1B
0A
0S
1E
1R
1O
0\
1[
1P
0>
1=
0+
1*
#660000
0!
0@
1.
#670000
1!
1@
0.
0B
1A
#680000
0!
0@
1.
#690000
1!
1@
0.
1B
0A
1S
1Q
0R
0O
0L
1F
0D
0[
1I
0P
0M
1U
0=
1<
0*
1)
#700000
0!
0@
1.
#710000
1!
1@
0.
0B
1A
#720000
0!
0@
1.
#730000
1!
1@
0.
1B
0A
0S
0Q
0E
1V
0N
0]
1T
1R
1O
0F
1G
1J
0U
15
07
1#
0$
0I
1U
0G
0J
1?
0<
1,
0)
#740000
0!
0@
1.
#750000
1!
1@
0.
0B
1A
#760000
0!
0@
1.
#770000
1!
1@
0.
1B
0A
1S
1]
0R
1D
1\
0?
1>
0,
1+
#780000
0!
0@
1.
#790000
1!
1@
0.
0B
1A
#800000
0!
0@
1.
#810000
1!
1@
0.
1B
0A
0S
1E
1R
1P
0\
1[
0>
1=
0+
1*
#820000
0!
0@
1.
#830000
1!
1@
0.
0B
1A
#840000
0!
0@
1.
#850000
1!
1@
0.
1B
0A
1S
1Q
0T
0R
1F
0D
0[
1I
0U
1J
0=
1<
0*
1)
#860000
0!
0@
1.
#870000
1!
1@
0.
0B
1A
#880000
0!
0@
1.
#890000
1!
1@
0.
1B
0A
0S
0E
0V
1K
0]
0O
1L
0F
0P
0J
05
16
0#
1-
0I
1M
1?
0<
1,
0)
#900000
0!
0@
1.
#910000
1!
1@
0.
0B
1A
#920000
0!
0@
1.
#930000
1!
1@
0.
1B
0A
0Q
1N
0K
1R
1O
17
06
1$
0-
#940000
0!
0@
1.
#950000
1!
1@
0.
0B
1A
#960000
0!
0@
1.
#970000
1!
1@
0.
1B
0A
1S
1]
0R
0O
1D
1\
0?
1>
0,
1+
#980000
0!
0@
1.
#990000
1!
1@
0.
0B
1A
