simulation/qsim/UNITL.msim.vcd
$comment
	File created using the following command:
		vcd file UNITL.msim.vcd -direction
$end
$date
	Tue Aug 20 10:01:48 2024
$end
$version
	ModelSim Version 10.1d
$end
$timescale
	1ps
$end
$scope module NEANDER_vlg_vec_tst $end
$var reg 1 ! CLK_IN $end
$var reg 1 " DEBUG $end
$var reg 1 # Reset $end
$var reg 1 $ step $end
$var wire 1 % AC [7] $end
$var wire 1 & AC [6] $end
$var wire 1 ' AC [5] $end
$var wire 1 ( AC [4] $end
$var wire 1 ) AC [3] $end
$var wire 1 * AC [2] $end
$var wire 1 + AC [1] $end
$var wire 1 , AC [0] $end
$var wire 1 - HLT $end
$var wire 1 . N $end
$var wire 1 / PC [7] $end
$var wire 1 0 PC [6] $end
$var wire 1 1 PC [5] $end
$var wire 1 2 PC [4] $end
$var wire 1 3 PC [3] $end
$var wire 1 4 PC [2] $end
$var wire 1 5 PC [1] $end
$var wire 1 6 PC [0] $end
$var wire 1 7 Z $end
$var wire 1 8 sampler $end
$scope module i1 $end
$var wire 1 9 gnd $end
$var wire 1 : vcc $end
$var wire 1 ; unknown $end
$var tri1 1 < devclrn $end
$var tri1 1 = devpor $end
$var tri1 1 > devoe $end
$var wire 1 ? inst10|inst2|inst12|inst~combout $end
$var wire 1 @ inst|inst17~0_combout $end
$var wire 1 A inst4|inst46~1_combout $end
$var wire 1 B inst7|inst3|inst1|inst~q $end
$var wire 1 C inst7|inst3|inst|inst3~q $end
$var wire 1 D inst7|inst3|inst|inst~q $end
$var wire 1 E inst7|inst5|inst1|inst3~q $end
$var wire 1 F inst7|inst5|inst1|inst~q $end
$var wire 1 G inst7|inst5|inst|inst3~q $end
$var wire 1 H inst7|inst5|inst|inst~q $end
$var wire 1 I inst7|inst4|inst1|inst3~q $end
$var wire 1 J inst7|inst4|inst1|inst~q $end
$var wire 1 K inst7|inst4|inst|inst3~q $end
$var wire 1 L inst7|inst4|inst|inst~q $end
$var wire 1 M inst7|inst2|inst1|inst3~q $end
$var wire 1 N inst7|inst2|inst1|inst~q $end
$var wire 1 O inst7|inst2|inst|inst3~q $end
$var wire 1 P inst7|inst2|inst|inst~q $end
$var wire 1 Q inst7|inst1|inst1|inst3~q $end
$var wire 1 R inst7|inst1|inst1|inst~q $end
$var wire 1 S inst7|inst1|inst|inst3~q $end
$var wire 1 T inst7|inst1|inst|inst~q $end
$var wire 1 U inst7|inst|inst1|inst3~q $end
$var wire 1 V inst7|inst|inst1|inst~q $end
$var wire 1 W inst7|inst|inst|inst3~q $end
$var wire 1 X inst7|inst|inst|inst~q $end
$var wire 1 Y inst7|inst3|inst1|inst~0_combout $end
$var wire 1 Z inst7|inst3|inst|inst3~0_combout $end
$var wire 1 [ inst7|inst3|inst|inst~0_combout $end
$var wire 1 \ inst7|inst5|inst1|inst3~0_combout $end
$var wire 1 ] inst7|inst5|inst1|inst~0_combout $end
$var wire 1 ^ inst7|inst5|inst|inst3~0_combout $end
$var wire 1 _ inst7|inst5|inst|inst~0_combout $end
$var wire 1 ` inst7|inst4|inst1|inst3~0_combout $end
$var wire 1 a inst7|inst4|inst1|inst~0_combout $end
$var wire 1 b inst7|inst4|inst|inst3~0_combout $end
$var wire 1 c inst7|inst4|inst|inst~0_combout $end
$var wire 1 d inst7|inst2|inst1|inst3~0_combout $end
$var wire 1 e inst7|inst2|inst1|inst~0_combout $end
$var wire 1 f inst7|inst2|inst|inst3~0_combout $end
$var wire 1 g inst7|inst2|inst|inst~0_combout $end
$var wire 1 h inst7|inst1|inst1|inst3~0_combout $end
$var wire 1 i inst7|inst1|inst1|inst~0_combout $end
$var wire 1 j inst7|inst1|inst|inst3~0_combout $end
$var wire 1 k inst7|inst1|inst|inst~0_combout $end
$var wire 1 l inst7|inst|inst1|inst3~0_combout $end
$var wire 1 m inst7|inst|inst1|inst~0_combout $end
$var wire 1 n inst7|inst|inst|inst3~0_combout $end
$var wire 1 o inst7|inst|inst|inst~0_combout $end
$var wire 1 p CLK_IN~input_o $end
$var wire 1 q inst7|inst3|inst1|inst~feeder_combout $end
$var wire 1 r inst7|inst3|inst|inst~feeder_combout $end
$var wire 1 s inst7|inst5|inst1|inst~feeder_combout $end
$var wire 1 t inst7|inst5|inst|inst~feeder_combout $end
$var wire 1 u inst7|inst4|inst|inst~feeder_combout $end
$var wire 1 v inst7|inst2|inst1|inst~feeder_combout $end
$var wire 1 w inst7|inst1|inst1|inst~feeder_combout $end
$var wire 1 x inst7|inst1|inst|inst~feeder_combout $end
$var wire 1 y inst7|inst|inst|inst~feeder_combout $end
$var wire 1 z N~output_o $end
$var wire 1 { PC[7]~output_o $end
$var wire 1 | PC[6]~output_o $end
$var wire 1 } PC[5]~output_o $end
$var wire 1 ~ PC[4]~output_o $end
$var wire 1 !! PC[3]~output_o $end
$var wire 1 "! PC[2]~output_o $end
$var wire 1 #! PC[1]~output_o $end
$var wire 1 $! PC[0]~output_o $end
$var wire 1 %! Z~output_o $end
$var wire 1 &! HLT~output_o $end
$var wire 1 '! AC[7]~output_o $end
$var wire 1 (! AC[6]~output_o $end
$var wire 1 )! AC[5]~output_o $end
$var wire 1 *! AC[4]~output_o $end
$var wire 1 +! AC[3]~output_o $end
$var wire 1 ,! AC[2]~output_o $end
$var wire 1 -! AC[1]~output_o $end
$var wire 1 .! AC[0]~output_o $end
$var wire 1 /! step~input_o $end
$var wire 1 0! DEBUG~input_o $end
$var wire 1 1! inst7|inst3|inst1|inst3~0_combout $end
$var wire 1 2! Reset~input_o $end
$var wire 1 3! Reset~inputclkctrl_outclk $end
$var wire 1 4! inst7|inst3|inst1|inst3~q $end
$var wire 1 5! inst6|inst~combout $end
$var wire 1 6! inst6|inst~clkctrl_outclk $end
$var wire 1 7! inst1|inst11|inst2~0_combout $end
$var wire 1 8! inst14|inst|inst7~0feeder_combout $end
$var wire 1 9! inst14|inst|inst7~0_q $end
$var wire 1 :! inst14|inst|inst5~1_q $end
$var wire 1 ;! inst14|inst|inst7~1_q $end
$var wire 1 <! inst14|inst|inst6~1_q $end
$var wire 1 =! inst10|inst2|inst8|inst~combout $end
$var wire 1 >! inst14|inst|inst2~1_q $end
$var wire 1 ?! inst10|inst2|inst10|inst2~combout $end
$var wire 1 @! inst10|inst4|inst3|inst~0_combout $end
$var wire 1 A! inst1|inst13|inst7|inst2~0_combout $end
$var wire 1 B! inst4|inst42~0_combout $end
$var wire 1 C! inst4|inst42~1_combout $end
$var wire 1 D! inst4|inst46~0_combout $end
$var wire 1 E! inst1|inst15|inst7|inst5~0_combout $end
$var wire 1 F! inst2|inst5~2_combout $end
$var wire 1 G! inst4|inst46~2_combout $end
$var wire 1 H! inst4|inst46~3_combout $end
$var wire 1 I! inst1|inst|inst3|inst2~combout $end
$var wire 1 J! inst1|inst11|inst3~q $end
$var wire 1 K! inst1|inst|inst2|inst2~combout $end
$var wire 1 L! inst1|inst11|inst4~q $end
$var wire 1 M! inst2|inst4~0_combout $end
$var wire 1 N! inst4|inst39~3_combout $end
$var wire 1 O! inst4|inst39~2_combout $end
$var wire 1 P! inst15|inst|inst~q $end
$var wire 1 Q! inst2|inst5~0_combout $end
$var wire 1 R! inst2|inst5~1_combout $end
$var wire 1 S! inst2|inst4~1_combout $end
$var wire 1 T! inst|inst2|inst|inst~0_combout $end
$var wire 1 U! inst|inst2|inst|inst~1_combout $end
$var wire 1 V! inst14|inst|inst8~1_q $end
$var wire 1 W! inst10|inst4|inst5|inst~0_combout $end
$var wire 1 X! inst10|inst|inst6~q $end
$var wire 1 Y! inst13|inst4|inst5|inst~0_combout $end
$var wire 1 Z! inst4|inst13~0_combout $end
$var wire 1 [! inst4|inst13~1_combout $end
$var wire 1 \! inst13|inst|inst6~q $end
$var wire 1 ]! inst10|inst2|inst13|inst~combout $end
$var wire 1 ^! inst10|inst4|inst7|inst~0_combout $end
$var wire 1 _! inst10|inst|inst7~q $end
$var wire 1 `! inst13|inst4|inst7|inst~0_combout $end
$var wire 1 a! inst13|inst|inst7~q $end
$var wire 1 b! inst3|Mux0_rtl_0|auto_generated|ram_block1a5 $end
$var wire 1 c! inst14|inst|inst8~4_combout $end
$var wire 1 d! inst15|inst|inst8~q $end
$var wire 1 e! inst|inst2|inst2|inst~1_combout $end
$var wire 1 f! inst|inst2|inst2|inst~2_combout $end
$var wire 1 g! inst|inst2|inst2|inst~0_combout $end
$var wire 1 h! inst15|inst|inst3~q $end
$var wire 1 i! inst|inst4|inst2|inst1|inst5~0_combout $end
$var wire 1 j! inst|inst4|inst2|inst3|inst5~0_combout $end
$var wire 1 k! inst|inst2|inst4|inst~1_combout $end
$var wire 1 l! inst|inst2|inst4|inst~2_combout $end
$var wire 1 m! inst|inst2|inst4|inst~0_combout $end
$var wire 1 n! inst15|inst|inst2~q $end
$var wire 1 o! inst|inst4|inst2|inst3|inst5~1_combout $end
$var wire 1 p! inst|inst2|inst6|inst~1_combout $end
$var wire 1 q! inst|inst2|inst6|inst~2_combout $end
$var wire 1 r! inst|inst2|inst6|inst~0_combout $end
$var wire 1 s! inst15|inst|inst6~q $end
$var wire 1 t! inst|inst2|inst5|inst~1_combout $end
$var wire 1 u! inst|inst4|inst2|inst4|inst5~0_combout $end
$var wire 1 v! inst|inst4|inst3|inst|inst5~0_combout $end
$var wire 1 w! inst|inst4|inst3|inst|inst5~1_combout $end
$var wire 1 x! inst|inst2|inst3|inst~1_combout $end
$var wire 1 y! inst|inst2|inst3|inst~2_combout $end
$var wire 1 z! inst|inst2|inst3|inst~0_combout $end
$var wire 1 {! inst15|inst|inst5~q $end
$var wire 1 |! inst|inst4|inst3|inst1|inst5~0_combout $end
$var wire 1 }! inst|inst2|inst5|inst~2_combout $end
$var wire 1 ~! inst|inst2|inst5|inst~0_combout $end
$var wire 1 !" inst|inst17~1_combout $end
$var wire 1 "" inst|inst17~2_combout $end
$var wire 1 #" inst19|inst~q $end
$var wire 1 $" inst4|inst18~0_combout $end
$var wire 1 %" inst4|inst18~1_combout $end
$var wire 1 &" inst4|inst14~0_combout $end
$var wire 1 '" inst4|inst14~1_combout $end
$var wire 1 (" inst10|inst|inst7~0_combout $end
$var wire 1 )" inst10|inst|inst5~q $end
$var wire 1 *" inst13|inst4|inst3|inst~0_combout $end
$var wire 1 +" inst13|inst|inst5~q $end
$var wire 1 ," inst3|Mux0_rtl_0|auto_generated|ram_block1a3 $end
$var wire 1 -" inst14|inst|inst2~4_combout $end
$var wire 1 ." inst10|inst4|inst4|inst~0_combout $end
$var wire 1 /" inst10|inst|inst2~q $end
$var wire 1 0" inst10|inst2|inst9|inst~combout $end
$var wire 1 1" inst10|inst4|inst6|inst~0_combout $end
$var wire 1 2" inst10|inst|inst3~q $end
$var wire 1 3" inst10|inst2|inst9|inst2~combout $end
$var wire 1 4" inst10|inst4|inst1|inst~0_combout $end
$var wire 1 5" inst10|inst|inst4~q $end
$var wire 1 6" inst13|inst4|inst1|inst~0_combout $end
$var wire 1 7" inst13|inst|inst4~q $end
$var wire 1 8" inst3|Mux0_rtl_0|auto_generated|ram_block1a1 $end
$var wire 1 9" inst14|inst|inst6~4_combout $end
$var wire 1 :" inst17|inst|inst6~feeder_combout $end
$var wire 1 ;" inst1|inst15|inst7|inst~0_combout $end
$var wire 1 <" inst17|inst|inst6~q $end
$var wire 1 =" inst11|inst|inst|inst6|inst5~0_combout $end
$var wire 1 >" inst4|inst~1_combout $end
$var wire 1 ?" inst4|inst~2_combout $end
$var wire 1 @" inst4|inst~0_combout $end
$var wire 1 A" inst5~2_combout $end
$var wire 1 B" inst5~3_combout $end
$var wire 1 C" inst14|inst|inst7~3_q $end
$var wire 1 D" inst14|inst|inst3~1_q $end
$var wire 1 E" inst3|Mux0_rtl_0|auto_generated|ram_block1a6 $end
$var wire 1 F" inst14|inst|inst3~4_combout $end
$var wire 1 G" inst13|inst4|inst6|inst~0_combout $end
$var wire 1 H" inst13|inst|inst3~q $end
$var wire 1 I" inst3|Mux0_rtl_0|auto_generated|ram_block1a0~portadataout $end
$var wire 1 J" inst14|inst|inst7~4_combout $end
$var wire 1 K" inst17|inst|inst7~q $end
$var wire 1 L" inst4|inst16~0_combout $end
$var wire 1 M" inst13|inst4|inst4|inst~0_combout $end
$var wire 1 N" inst13|inst|inst2~q $end
$var wire 1 O" inst3|Mux0_rtl_0|auto_generated|ram_block1a7 $end
$var wire 1 P" inst14|inst|inst5~4_combout $end
$var wire 1 Q" inst17|inst|inst5~feeder_combout $end
$var wire 1 R" inst17|inst|inst5~q $end
$var wire 1 S" inst11|inst|inst1|inst9|inst5~0_combout $end
$var wire 1 T" inst1|inst11|inst2~q $end
$var wire 1 U" inst1|inst15|inst8|inst5~0_combout $end
$var wire 1 V" inst13|inst4|inst2|inst~0_combout $end
$var wire 1 W" inst13|inst|inst8~q $end
$var wire 1 X" inst3|Mux0_rtl_0|auto_generated|ram_block1a4 $end
$var wire 1 Y" inst14|inst|inst~1_q $end
$var wire 1 Z" inst14|inst|inst~4_combout $end
$var wire 1 [" inst10|inst4|inst|inst~0_combout $end
$var wire 1 \" inst10|inst|inst~q $end
$var wire 1 ]" inst13|inst4|inst|inst~0_combout $end
$var wire 1 ^" inst13|inst|inst~q $end
$var wire 1 _" inst3|Mux0_rtl_0|auto_generated|ram_block1a2 $end
$var wire 1 `" inst14|inst|inst4~1_q $end
$var wire 1 a" inst14|inst|inst4~4_combout $end
$var wire 1 b" inst17|inst|inst4~q $end
$var wire 1 c" inst4|inst35~0_combout $end
$var wire 1 d" inst4|inst35~1_combout $end
$var wire 1 e" inst|inst4|inst3|inst4|inst2~0_combout $end
$var wire 1 f" inst|inst4|inst3|inst4|inst2~1_combout $end
$var wire 1 g" inst|inst2|inst7|inst~0_combout $end
$var wire 1 h" inst|inst2|inst7|inst~1_combout $end
$var wire 1 i" inst|inst2|inst7|inst~2_combout $end
$var wire 1 j" inst18|inst~q $end
$var wire 1 k" inst10|inst4|inst2|inst~0_combout $end
$var wire 1 l" inst10|inst|inst8~q $end
$var wire 1 m" inst|inst2|inst1|inst~1_combout $end
$var wire 1 n" inst|inst2|inst1|inst~2_combout $end
$var wire 1 o" inst|inst2|inst1|inst~0_combout $end
$var wire 1 p" inst15|inst|inst4~q $end
$var wire 1 q" inst3|Mux0_rtl_0|auto_generated|ram_block1a0_PORTADATAOUT_bus [17] $end
$var wire 1 r" inst3|Mux0_rtl_0|auto_generated|ram_block1a0_PORTADATAOUT_bus [16] $end
$var wire 1 s" inst3|Mux0_rtl_0|auto_generated|ram_block1a0_PORTADATAOUT_bus [15] $end
$var wire 1 t" inst3|Mux0_rtl_0|auto_generated|ram_block1a0_PORTADATAOUT_bus [14] $end
$var wire 1 u" inst3|Mux0_rtl_0|auto_generated|ram_block1a0_PORTADATAOUT_bus [13] $end
$var wire 1 v" inst3|Mux0_rtl_0|auto_generated|ram_block1a0_PORTADATAOUT_bus [12] $end
$var wire 1 w" inst3|Mux0_rtl_0|auto_generated|ram_block1a0_PORTADATAOUT_bus [11] $end
$var wire 1 x" inst3|Mux0_rtl_0|auto_generated|ram_block1a0_PORTADATAOUT_bus [10] $end
$var wire 1 y" inst3|Mux0_rtl_0|auto_generated|ram_block1a0_PORTADATAOUT_bus [9] $end
$var wire 1 z" inst3|Mux0_rtl_0|auto_generated|ram_block1a0_PORTADATAOUT_bus [8] $end
$var wire 1 {" inst3|Mux0_rtl_0|auto_generated|ram_block1a0_PORTADATAOUT_bus [7] $end
$var wire 1 |" inst3|Mux0_rtl_0|auto_generated|ram_block1a0_PORTADATAOUT_bus [6] $end
$var wire 1 }" inst3|Mux0_rtl_0|auto_generated|ram_block1a0_PORTADATAOUT_bus [5] $end
$var wire 1 ~" inst3|Mux0_rtl_0|auto_generated|ram_block1a0_PORTADATAOUT_bus [4] $end
$var wire 1 !# inst3|Mux0_rtl_0|auto_generated|ram_block1a0_PORTADATAOUT_bus [3] $end
$var wire 1 "# inst3|Mux0_rtl_0|auto_generated|ram_block1a0_PORTADATAOUT_bus [2] $end
$var wire 1 ## inst3|Mux0_rtl_0|auto_generated|ram_block1a0_PORTADATAOUT_bus [1] $end
$var wire 1 $# inst3|Mux0_rtl_0|auto_generated|ram_block1a0_PORTADATAOUT_bus [0] $end
$upscope $end
$upscope $end
$enddefinitions $end
#0
$dumpvars
0!
1"
0#
0$
x,
x+
x*
x)
x(
x'
x&
x%
x-
x.
x6
x5
x4
x3
x2
x1
x0
x/
x7
x8
09
1:
x;
1<
1=
1>
x?
x@
xA
0B
0C
0D
0E
0F
0G
0H
0I
0J
0K
0L
0M
0N
0O
0P
0Q
0R
0S
0T
0U
0V
0W
0X
xY
xZ
x[
x\
x]
x^
x_
x`
xa
xb
xc
xd
xe
xf
xg
xh
xi
xj
xk
xl
xm
xn
xo
0p
xq
xr
xs
xt
xu
xv
xw
xx
xy
xz
x{
x|
x}
x~
x!!
x"!
x#!
x$!
x%!
x&!
x'!
x(!
x)!
x*!
x+!
x,!
x-!
x.!
0/!
10!
11!
02!
x3!
04!
x5!
x6!
x7!
18!
09!
0:!
0;!
0<!
x=!
0>!
x?!
x@!
xA!
xB!
xC!
xD!
xE!
xF!
xG!
xH!
xI!
0J!
xK!
0L!
xM!
xN!
xO!
0P!
xQ!
xR!
xS!
xT!
xU!
0V!
xW!
0X!
xY!
xZ!
x[!
0\!
x]!
x^!
0_!
x`!
0a!
0b!
xc!
0d!
xe!
xf!
xg!
0h!
xi!
xj!
xk!
xl!
xm!
0n!
xo!
xp!
xq!
xr!
0s!
xt!
xu!
xv!
xw!
xx!
xy!
xz!
0{!
x|!
x}!
x~!
x!"
x""
0#"
x$"
x%"
x&"
x'"
x("
0)"
x*"
0+"
0,"
x-"
x."
0/"
x0"
x1"
02"
x3"
x4"
05"
x6"
07"
08"
x9"
x:"
x;"
0<"
x="
x>"
x?"
x@"
xA"
xB"
0C"
0D"
0E"
xF"
xG"
0H"
0I"
xJ"
0K"
xL"
xM"
0N"
0O"
xP"
xQ"
0R"
xS"
0T"
xU"
xV"
0W"
0X"
0Y"
xZ"
x["
0\"
x]"
0^"
0_"
0`"
xa"
0b"
xc"
xd"
xe"
xf"
xg"
xh"
xi"
0j"
xk"
0l"
xm"
xn"
xo"
0p"
0$#
0##
0"#
0!#
0~"
0}"
0|"
0{"
0z"
0y"
0x"
0w"
0v"
0u"
0t"
0s"
0r"
0q"
$end
#145
03!
#440
03"
#448
0S!
#466
0R!
#508
0A!
#509
0U"
#513
0c"
#520
0J"
#540
09"
#547
0-"
#554
1h
#555
0?!
#557
1b
#558
1Z
1\
1^
1j
#565
1n
#566
1`
#569
1d
#570
1f
1l
#585
17!
#589
00"
#635
1Z!
#682
1a
1g
1m
#703
0]!
#706
0d"
#709
0Q!
#710
0w!
#711
0M!
#714
1[
1]
1_
#715
1e
1i
#716
1Y
#738
0L"
#742
0a"
#744
0E!
#748
0K!
#760
0=!
#767
0C!
#777
1&"
#800
0%"
#809
1S"
#817
0B"
#828
0P"
#851
0c!
0F"
#853
0?
#855
0o!
#866
0I!
#871
1k
#878
1c
#884
0Z"
#900
0;"
#1010
0i!
#1018
0N!
#1048
1o
#1051
1[!
#1094
0G!
#1116
0?"
#1119
0F!
#1122
1="
#1128
1B!
#1130
1>"
#1132
0D!
#1165
0$"
#1181
0j!
#1213
0`!
#1222
0Y!
#1223
0*"
#1224
0]"
#1270
1q
1w
1v
1t
1s
1r
#1307
0e!
#1341
0."
#1350
0^!
#1371
1'"
#1411
0:"
#1425
0v!
0m"
#1435
1A
#1450
0k!
#1469
0t!
#1471
0l!
#1472
0G"
#1478
0M"
0V"
#1483
0u!
#1490
0h"
#1501
06"
#1530
0k"
#1542
01"
#1562
0@"
#1595
0W!
#1612
1x
#1613
1u
#1624
0f"
#1671
0y!
#1696
0T!
#1701
04"
#1729
0Q"
#1789
0m!
#1805
0@!
0f!
0O!
#1809
0i"
#1835
0|!
#1838
0e"
#1851
0q!
#1879
0H!
#1893
0x!
#1945
0p!
0g"
#1972
0("
#1981
1y
#1991
0z!
#2033
0n"
#2109
0["
#2146
0U!
#2226
0}!
#2257
0g!
#2307
0A"
#2311
0r!
#2352
0o"
#2546
0~!
#2866
0!"
#3144
0@
#3159
0(!
0&
#3179
0+!
0)
#3216
0.!
0,
#3246
0,!
0*
#3253
0#!
05
#3287
0'!
0%
#3301
0}
01
#3303
05!
#3305
0"!
0!!
04
03
#3307
0z
0.
#3308
0$!
06
#3346
0~
0{
02
0/
#3365
0-!
0+
#3400
0)!
0'
#3426
0%!
07
#3445
0*!
0(
#3736
1""
#3860
06!
#3929
0&!
0-
#4325
0|
00
#20000
1#
1$
08
#20725
1/!
#20775
12!
#20938
13!
#23791
15!
#24340
16!
#26031
19!
#26035
1T"
#26547
07!
#26729
1B"
#26733
0Z!
0&"
#26815
1I!
#27053
0'"
#27181
0[!
#27694
1("
#27821
1["
#28601
1{"
1O"
#40000
0$
18
#40886
0/!
#44189
05!
#44746
06!
#60000
1$
08
#60725
1/!
#63791
15!
#64340
16!
#66035
1J!
1C"
0T"
1\"
#66404
0["
0I!
#66591
1&"
#66620
17!
#66816
1k"
#66839
0B"
#66851
1;"
#66893
1I!
#66895
1'"
#67069
1P"
#67220
1]"
#67496
0("
#67628
1["
#67889
1y!
#67938
1Q"
#68193
1z!
#68497
1@
#69062
0""
#69316
1$!
16
#80000
0$
18
#80886
0/!
#84189
05!
#84746
06!
#100000
1$
08
#100725
1/!
#103791
15!
#104340
16!
#106031
1:!
#106034
1R"
#106035
0C"
1T"
#106416
1L"
#106463
1A!
#106547
07!
#106671
1E!
#106672
1K!
#106745
0;"
#106823
0I!
#107058
1?"
#107060
1F!
#107069
0B!
#107074
1$"
0>"
#107076
0="
#107210
1A"
#107270
1H!
#107281
1Q!
#107408
0A
#107472
1@"
#107939
1[!
#107971
0H!
#108030
0K!
#108739
1K!
#120000
0$
18
#120886
0/!
#124189
05!
#124746
06!
#140000
1$
08
#140725
1/!
#143791
15!
#144340
16!
#146034
1^"
#146035
0J!
1L!
0T"
#146388
1I!
#146404
0K!
#146543
0A!
#146620
17!
#146665
0&"
#146695
0E!
#146779
1K!
#146786
1M!
#146795
1D!
#146831
1B"
#146901
0I!
#146985
0'"
#147033
0Q!
#147155
0D!
#147266
0[!
#147348
1O!
#147372
0M!
#147495
1H!
#147626
1("
#147758
0["
#147902
0H!
#147991
0O!
#148255
0K!
#148670
1K!
#160000
0$
18
#160886
0/!
#164189
05!
#164746
06!
#180000
1$
08
#180725
1/!
#183791
15!
#184340
16!
#186034
1l"
#186035
1C"
1T"
0\"
#186388
1["
#186403
0k"
#186547
07!
#186671
1U"
#186681
1V"
#186715
1Z!
1&"
#186737
0B"
#186815
1I!
#186894
1k"
#187019
1'"
#187131
1[!
#187292
0]"
#187370
1*"
#187616
0V"
#187620
0("
#187757
0["
#188601
1$#
0{"
1I"
0O"
#189113
1J"
#189281
1#!
15
#189343
0$!
06
#189355
0P"
#189901
1f"
#189904
1h"
#189917
1`!
#190198
0y!
#190206
1g"
#190207
1i"
#190256
0Q"
#190265
0*"
#190518
0z!
#190836
0@
#200000
0$
18
#200886
0/!
#204189
05!
#204746
06!
#220000
1$
08
#220725
1/!
#223791
15!
#224340
16!
#226031
1;!
0:!
#226034
0^"
1a!
#226035
1J!
0C"
0T"
#226404
0I!
#226584
0Z!
#226620
17!
#226777
0U"
#226831
1B"
#226893
1I!
#227032
0[!
#227481
0`!
#227738
1V"
#240000
0$
18
#240886
0/!
#244189
05!
#244746
06!
#260000
1$
08
#260725
1/!
#263791
15!
#264340
16!
#266035
1C"
1T"
#266463
1A!
#266547
07!
#266676
0K!
#266737
0B"
#266823
0I!
#267011
1D!
#267281
1M!
#267711
1H!
#267843
1O!
#268601
0$#
1}"
1|"
0I"
1b!
1E"
#269121
0J"
#269364
1F"
#269366
1c!
#269929
0f"
#269933
0h"
#270250
0g"
#270252
0i"
#270307
1f!
#270340
1q!
#270582
1""
#270751
1g!
#270796
1r!
#271211
1!"
#271624
0""
#280000
0$
18
#280886
0/!
#284189
05!
#284746
06!
#300000
1$
08
#300725
1/!
#303791
15!
#304340
16!
#306031
0;!
#306032
1D"
1V!
1d!
#306033
1h!
#306035
0J!
0L!
0C"
0T"
#306543
0A!
#306620
17!
#306670
1Z!
#306784
1u!
#306819
0M!
#306868
0D!
#306965
1i!
#306983
1e!
#307010
1p!
#307072
1Q!
#307086
1[!
#307372
0Q!
#307438
0O!
#307615
0H!
#309195
1+!
1)
#309354
1-!
1+
#320000
0$
18
#320886
0/!
#324189
05!
#324746
06!
#340000
1$
08
#340725
1/!
#343791
15!
#344340
16!
#346034
1W"
0a!
#346035
1T"
#346547
07!
#346729
1B"
#346733
0Z!
0&"
#346815
1I!
#347053
0'"
#347181
0[!
#347694
1("
#347821
1["
#360000
0$
18
#360886
0/!
#364189
05!
#364746
06!
#380000
1$
08
#380725
1/!
#383791
15!
#384340
16!
#386035
1J!
1C"
0T"
1\"
#386404
0["
0I!
#386591
1&"
#386620
17!
#386810
0k"
#386826
1=!
#386839
0B"
#386851
1;"
#386893
1I!
#386895
1'"
#387220
1]"
#387381
1."
#387496
0("
#387628
1["
#388601
1##
0}"
0|"
1{"
18"
0b!
0E"
1O"
#389132
19"
#389316
1$!
16
#389346
1P"
#389368
0c!
#389373
0F"
#389616
1t!
#389835
0i!
#389971
1:"
#390005
0u!
#390166
1y!
#390215
1Q"
#390322
0f!
#390360
1}!
#390373
0q!
#390470
1z!
#390664
1~!
#390774
1@
0g!
#390833
0r!
#400000
0$
18
#400886
0/!
#404189
05!
#404746
06!
#420000
1$
08
#420725
1/!
#423791
15!
#424340
16!
#426031
1<!
1:!
#426032
0D"
0V!
#426034
1<"
#426035
0C"
1T"
#426463
1A!
#426547
07!
#426671
1E!
#426672
1K!
#426673
0L"
#426745
0;"
#426823
0I!
#426894
0?"
#427040
1G!
#427197
1[!
#427281
1Q!
#427340
0@"
#427344
1H!
#427381
1N!
#427485
0A"
#427784
1R!
#427818
0[!
#428104
0K!
#428157
1O!
#428228
1q!
#428393
0p!
#428597
1T!
1k!
#428598
0e!
#428684
1r!
#428710
0q!
#428720
0y!
#428739
1m"
#428740
1h"
#428754
1x!
#428758
1f!
#428915
0f!
#429013
1l!
#429040
1U!
0z!
#429043
1i"
#429170
0r!
#429222
1y!
#429293
1n"
#429316
1m!
#429358
0@
#429526
1z!
#429596
1o"
#429830
1@
#440000
0$
18
#440886
0/!
#444189
05!
#444746
06!
#460000
1$
08
#460725
1/!
#463791
15!
#464340
16!
#466031
1n!
#466032
0d!
1p"
#466033
0h!
#466035
0J!
0T"
#466397
1P!
1s!
1{!
1j"
#466398
0m"
#466543
0A!
#466620
17!
#466668
0k!
#466670
1Z!
#466779
0E!
#467006
0n"
#467055
1e!
#467064
1p!
#467086
1[!
#467116
0l!
#467161
0x!
#467165
1g"
#467325
0o"
#467330
1|!
#467333
1e"
#467357
1f!
#467366
1q!
#467372
0Q!
#467394
1f"
#467409
0H!
#467434
0m!
#467445
0t!
#467461
0h"
#467550
0N!
#467640
0y!
#467745
0T!
#467780
0i"
#467801
1g!
#467822
1r!
#467920
0R!
#467960
0z!
#468195
0U!
#468202
0}!
#468278
0@
#468337
0O!
#468404
0q!
#468522
0~!
#468576
0p!
#468750
0g"
#468761
0e!
#468864
0r!
#468891
1y!
#468911
1t!
#468923
1x!
#468931
0f!
#469195
1z!
#469212
0+!
0)
#469259
1,!
1*
#469383
0g!
#469397
0-!
0+
#469445
1*!
1(
#469499
1@
#469537
1(!
1&
#469584
1.!
1,
#469630
1'!
1%
#469650
1z
1.
#469655
1}!
#469832
1)!
1'
#469959
1~!
#470133
0!"
#470263
1!"
#480000
0$
18
#480886
0/!
#484189
05!
#484746
06!
#500000
1$
08
#500725
1/!
#503791
15!
#504340
16!
#506034
1^"
#506035
1T"
#506547
07!
#506729
1B"
#506733
0Z!
0&"
#506815
1I!
#507053
0'"
#507181
0[!
#507694
1("
#507826
0["
#520000
0$
18
#520886
0/!
#524189
05!
#524746
06!
#540000
1$
08
#540725
1/!
#543791
15!
#544340
16!
#546034
1/"
0l"
#546035
1J!
1C"
0T"
0\"
#546387
1k"
#546388
1["
#546404
0I!
#546591
1&"
#546620
17!
#546680
1M"
#546795
0V"
#546839
0B"
#546851
1;"
#546888
0k"
#546893
1I!
#546895
1'"
#547292
0]"
#547496
0("
#547633
0["
#548601
0##
1"#
08"
1_"
#549141
09"
#549287
0#!
05
#549302
1a"
#549342
1"!
14
#549343
0$!
06
#549645
0t!
#549947
1m"
#549948
1w!
#550012
0:"
#550263
0x!
#550402
0}!
#550501
1n"
#550722
0~!
#550804
1o"
#551042
0!"
#560000
0$
18
#560886
0/!
#564189
05!
#564746
06!
#580000
1$
08
#580725
1/!
#583791
15!
#584340
16!
#586031
1`"
0<!
#586034
0<"
1b"
#586035
0C"
1T"
#586463
1A!
#586547
07!
#586671
1E!
#586672
1K!
#586745
0;"
#586777
1L"
#586823
0I!
#586831
0F!
#586960
1?"
#587127
0$"
#587128
0G!
#587270
1H!
#587374
1@"
#587447
0H!
#587571
1A"
#587841
1[!
#600000
0$
18
#600886
0/!
#604189
05!
#604746
06!
#620000
1$
08
#620725
1/!
#623791
15!
#624340
16!
#626034
0^"
0W"
1N"
#626035
0J!
1L!
0T"
#626388
1I!
#626404
0K!
#626543
0A!
#626620
17!
#626665
0&"
#626695
0E!
#626779
1K!
#626786
1M!
#626795
1D!
#626831
1B"
#626901
0I!
#626985
0'"
#627155
0D!
#627207
1S!
#627266
0[!
#627348
1O!
#627372
0M!
#627495
1H!
#627626
1("
#627753
1["
#627830
0S!
#627902
0H!
#627936
1T!
#627991
0O!
#628041
1t!
#628166
1k!
#628255
0K!
#628379
1U!
#628569
0T!
