simulation/qsim/UNITL.msim.vcd
$comment
	File created using the following command:
		vcd file UNITL.msim.vcd -direction
$end
$date
	Sun Aug 18 20:20:58 2024
$end
$version
	ModelSim Version 10.1d
$end
$timescale
	1ps
$end
$scope module NEANDER_vlg_vec_tst $end
$var reg 1 ! CLK_IN $end
$var reg 1 " DEBUG $end
$var reg 1 # Reset $end
$var reg 1 $ step $end
$var wire 1 % AC [7] $end
$var wire 1 & AC [6] $end
$var wire 1 ' AC [5] $end
$var wire 1 ( AC [4] $end
$var wire 1 ) AC [3] $end
$var wire 1 * AC [2] $end
$var wire 1 + AC [1] $end
$var wire 1 , AC [0] $end
$var wire 1 - AUX [7] $end
$var wire 1 . AUX [6] $end
$var wire 1 / AUX [5] $end
$var wire 1 0 AUX [4] $end
$var wire 1 1 AUX [3] $end
$var wire 1 2 AUX [2] $end
$var wire 1 3 AUX [1] $end
$var wire 1 4 AUX [0] $end
$var wire 1 5 charge_REM $end
$var wire 1 6 HLT $end
$var wire 1 7 N $end
$var wire 1 8 PC [7] $end
$var wire 1 9 PC [6] $end
$var wire 1 : PC [5] $end
$var wire 1 ; PC [4] $end
$var wire 1 < PC [3] $end
$var wire 1 = PC [2] $end
$var wire 1 > PC [1] $end
$var wire 1 ? PC [0] $end
$var wire 1 @ REM [7] $end
$var wire 1 A REM [6] $end
$var wire 1 B REM [5] $end
$var wire 1 C REM [4] $end
$var wire 1 D REM [3] $end
$var wire 1 E REM [2] $end
$var wire 1 F REM [1] $end
$var wire 1 G REM [0] $end
$var wire 1 H RI [7] $end
$var wire 1 I RI [6] $end
$var wire 1 J RI [5] $end
$var wire 1 K RI [4] $end
$var wire 1 L RI [3] $end
$var wire 1 M RI [2] $end
$var wire 1 N RI [1] $end
$var wire 1 O RI [0] $end
$var wire 1 P sel $end
$var wire 1 Q Z $end
$var wire 1 R sampler $end
$scope module i1 $end
$var wire 1 S gnd $end
$var wire 1 T vcc $end
$var wire 1 U unknown $end
$var tri1 1 V devclrn $end
$var tri1 1 W devpor $end
$var tri1 1 X devoe $end
$var wire 1 Y inst4|inst9~0_combout $end
$var wire 1 Z inst4|inst~0_combout $end
$var wire 1 [ inst4|inst46~2_combout $end
$var wire 1 \ inst|inst2|inst1|inst~0_combout $end
$var wire 1 ] inst10|inst2|inst13|inst~combout $end
$var wire 1 ^ inst7|inst1|inst3|inst1|inst3~q $end
$var wire 1 _ inst7|inst1|inst3|inst1|inst~q $end
$var wire 1 ` inst7|inst1|inst3|inst|inst3~q $end
$var wire 1 a inst7|inst1|inst3|inst|inst~q $end
$var wire 1 b inst7|inst1|inst5|inst1|inst3~q $end
$var wire 1 c inst7|inst1|inst5|inst1|inst~q $end
$var wire 1 d inst7|inst1|inst5|inst|inst3~q $end
$var wire 1 e inst7|inst1|inst5|inst|inst~q $end
$var wire 1 f inst7|inst1|inst4|inst1|inst3~q $end
$var wire 1 g inst7|inst1|inst4|inst1|inst~q $end
$var wire 1 h inst7|inst1|inst4|inst|inst3~q $end
$var wire 1 i inst7|inst1|inst4|inst|inst~q $end
$var wire 1 j inst7|inst1|inst2|inst1|inst3~q $end
$var wire 1 k inst7|inst1|inst2|inst1|inst~q $end
$var wire 1 l inst7|inst1|inst2|inst|inst3~q $end
$var wire 1 m inst7|inst1|inst2|inst|inst~q $end
$var wire 1 n inst7|inst1|inst1|inst1|inst3~q $end
$var wire 1 o inst7|inst1|inst1|inst1|inst~q $end
$var wire 1 p inst7|inst1|inst1|inst|inst3~q $end
$var wire 1 q inst7|inst1|inst1|inst|inst~q $end
$var wire 1 r inst7|inst1|inst|inst1|inst3~q $end
$var wire 1 s inst7|inst1|inst|inst1|inst~q $end
$var wire 1 t inst7|inst1|inst|inst|inst3~q $end
$var wire 1 u inst7|inst1|inst|inst|inst~q $end
$var wire 1 v inst4|inst39~4_combout $end
$var wire 1 w inst7|inst1|inst3|inst1|inst3~0_combout $end
$var wire 1 x inst7|inst1|inst3|inst1|inst~0_combout $end
$var wire 1 y inst7|inst1|inst3|inst|inst3~0_combout $end
$var wire 1 z inst7|inst1|inst3|inst|inst~0_combout $end
$var wire 1 { inst7|inst1|inst5|inst1|inst3~0_combout $end
$var wire 1 | inst7|inst1|inst5|inst1|inst~0_combout $end
$var wire 1 } inst7|inst1|inst5|inst|inst3~0_combout $end
$var wire 1 ~ inst7|inst1|inst5|inst|inst~0_combout $end
$var wire 1 !! inst7|inst1|inst4|inst1|inst3~0_combout $end
$var wire 1 "! inst7|inst1|inst4|inst1|inst~0_combout $end
$var wire 1 #! inst7|inst1|inst4|inst|inst3~0_combout $end
$var wire 1 $! inst7|inst1|inst4|inst|inst~0_combout $end
$var wire 1 %! inst7|inst1|inst2|inst1|inst3~0_combout $end
$var wire 1 &! inst7|inst1|inst2|inst1|inst~0_combout $end
$var wire 1 '! inst7|inst1|inst2|inst|inst3~0_combout $end
$var wire 1 (! inst7|inst1|inst2|inst|inst~0_combout $end
$var wire 1 )! inst7|inst1|inst1|inst1|inst3~0_combout $end
$var wire 1 *! inst7|inst1|inst1|inst1|inst~0_combout $end
$var wire 1 +! inst7|inst1|inst1|inst|inst3~0_combout $end
$var wire 1 ,! inst7|inst1|inst1|inst|inst~0_combout $end
$var wire 1 -! inst7|inst1|inst|inst1|inst3~0_combout $end
$var wire 1 .! inst7|inst1|inst|inst1|inst~0_combout $end
$var wire 1 /! inst7|inst1|inst|inst|inst3~0_combout $end
$var wire 1 0! inst7|inst1|inst|inst|inst~0_combout $end
$var wire 1 1! step~input_o $end
$var wire 1 2! CLK_IN~input_o $end
$var wire 1 3! inst7|inst1|inst5|inst1|inst3~feeder_combout $end
$var wire 1 4! inst7|inst1|inst5|inst|inst3~feeder_combout $end
$var wire 1 5! inst7|inst1|inst5|inst|inst~feeder_combout $end
$var wire 1 6! inst7|inst1|inst4|inst1|inst~feeder_combout $end
$var wire 1 7! inst7|inst1|inst4|inst|inst3~feeder_combout $end
$var wire 1 8! inst7|inst1|inst4|inst|inst~feeder_combout $end
$var wire 1 9! inst7|inst1|inst2|inst1|inst3~feeder_combout $end
$var wire 1 :! inst7|inst1|inst1|inst1|inst3~feeder_combout $end
$var wire 1 ;! inst7|inst1|inst1|inst|inst3~feeder_combout $end
$var wire 1 <! inst7|inst1|inst|inst1|inst3~feeder_combout $end
$var wire 1 =! inst7|inst1|inst|inst1|inst~feeder_combout $end
$var wire 1 >! inst7|inst1|inst|inst|inst~feeder_combout $end
$var wire 1 ?! N~output_o $end
$var wire 1 @! RI[7]~output_o $end
$var wire 1 A! RI[6]~output_o $end
$var wire 1 B! RI[5]~output_o $end
$var wire 1 C! RI[4]~output_o $end
$var wire 1 D! RI[3]~output_o $end
$var wire 1 E! RI[2]~output_o $end
$var wire 1 F! RI[1]~output_o $end
$var wire 1 G! RI[0]~output_o $end
$var wire 1 H! REM[7]~output_o $end
$var wire 1 I! REM[6]~output_o $end
$var wire 1 J! REM[5]~output_o $end
$var wire 1 K! REM[4]~output_o $end
$var wire 1 L! REM[3]~output_o $end
$var wire 1 M! REM[2]~output_o $end
$var wire 1 N! REM[1]~output_o $end
$var wire 1 O! REM[0]~output_o $end
$var wire 1 P! charge_REM~output_o $end
$var wire 1 Q! AUX[7]~output_o $end
$var wire 1 R! AUX[6]~output_o $end
$var wire 1 S! AUX[5]~output_o $end
$var wire 1 T! AUX[4]~output_o $end
$var wire 1 U! AUX[3]~output_o $end
$var wire 1 V! AUX[2]~output_o $end
$var wire 1 W! AUX[1]~output_o $end
$var wire 1 X! AUX[0]~output_o $end
$var wire 1 Y! sel~output_o $end
$var wire 1 Z! PC[7]~output_o $end
$var wire 1 [! PC[6]~output_o $end
$var wire 1 \! PC[5]~output_o $end
$var wire 1 ]! PC[4]~output_o $end
$var wire 1 ^! PC[3]~output_o $end
$var wire 1 _! PC[2]~output_o $end
$var wire 1 `! PC[1]~output_o $end
$var wire 1 a! PC[0]~output_o $end
$var wire 1 b! Z~output_o $end
$var wire 1 c! HLT~output_o $end
$var wire 1 d! AC[7]~output_o $end
$var wire 1 e! AC[6]~output_o $end
$var wire 1 f! AC[5]~output_o $end
$var wire 1 g! AC[4]~output_o $end
$var wire 1 h! AC[3]~output_o $end
$var wire 1 i! AC[2]~output_o $end
$var wire 1 j! AC[1]~output_o $end
$var wire 1 k! AC[0]~output_o $end
$var wire 1 l! DEBUG~input_o $end
$var wire 1 m! inst7|inst~0_combout $end
$var wire 1 n! Reset~input_o $end
$var wire 1 o! Reset~inputclkctrl_outclk $end
$var wire 1 p! inst7|inst~q $end
$var wire 1 q! inst9|inst~combout $end
$var wire 1 r! inst9|inst~clkctrl_outclk $end
$var wire 1 s! inst14|inst|inst7~0feeder_combout $end
$var wire 1 t! inst14|inst|inst7~0_q $end
$var wire 1 u! inst14|inst|inst6~1_q $end
$var wire 1 v! inst1|inst11|inst2~0_combout $end
$var wire 1 w! inst14|inst|inst7~1_q $end
$var wire 1 x! inst14|inst|inst8~1_q $end
$var wire 1 y! inst4|inst14~13_combout $end
$var wire 1 z! inst14|inst|inst4~1_q $end
$var wire 1 {! inst10|inst2|inst9|inst~combout $end
$var wire 1 |! inst14|inst|inst3~1_q $end
$var wire 1 }! inst8|inst2|inst~0_combout $end
$var wire 1 ~! inst4|inst24~combout $end
$var wire 1 !" inst11|inst|inst|inst6|inst5~0_combout $end
$var wire 1 "" inst14|inst|inst2~1_q $end
$var wire 1 #" inst4|inst47~2_combout $end
$var wire 1 $" inst4|inst47~3_combout $end
$var wire 1 %" inst10|inst4|inst2|inst~0_combout $end
$var wire 1 &" inst10|inst|inst8~0_combout $end
$var wire 1 '" inst10|inst|inst4~q $end
$var wire 1 (" inst10|inst2|inst9|inst2~combout $end
$var wire 1 )" inst10|inst2|inst10|inst2~combout $end
$var wire 1 *" inst10|inst4|inst4|inst~0_combout $end
$var wire 1 +" inst10|inst|inst5~q $end
$var wire 1 ," inst8|inst4|inst~0_combout $end
$var wire 1 -" inst13|inst|inst5~q $end
$var wire 1 ." inst10|inst2|inst12|inst~combout $end
$var wire 1 /" inst10|inst4|inst8|inst~0_combout $end
$var wire 1 0" inst10|inst|inst6~q $end
$var wire 1 1" inst8|inst8|inst~0_combout $end
$var wire 1 2" inst13|inst|inst6~q $end
$var wire 1 3" inst10|inst4|inst9|inst~0_combout $end
$var wire 1 4" inst10|inst|inst7~q $end
$var wire 1 5" inst8|inst9|inst~0_combout $end
$var wire 1 6" inst13|inst|inst7~q $end
$var wire 1 7" inst3|Mux0_rtl_0|auto_generated|ram_block1a5 $end
$var wire 1 8" inst14|inst|inst2~4_combout $end
$var wire 1 9" inst1|inst15|inst7|inst5~0_combout $end
$var wire 1 :" inst2|inst5~0_combout $end
$var wire 1 ;" inst2|inst5~1_combout $end
$var wire 1 <" inst14|inst|inst~1_q $end
$var wire 1 =" inst3|Mux0_rtl_0|auto_generated|ram_block1a7 $end
$var wire 1 >" inst14|inst|inst~4_combout $end
$var wire 1 ?" inst|inst2|inst1|inst~1_combout $end
$var wire 1 @" inst4|inst39~9_combout $end
$var wire 1 A" inst15|inst|inst~q $end
$var wire 1 B" inst|inst4|inst2|inst1|inst5~0_combout $end
$var wire 1 C" inst2|inst4~0_combout $end
$var wire 1 D" inst1|inst15|inst9|inst5~0_combout $end
$var wire 1 E" inst2|inst4~1_combout $end
$var wire 1 F" inst|inst2|inst7|inst~1_combout $end
$var wire 1 G" inst|inst2|inst7|inst~2_combout $end
$var wire 1 H" inst|inst2|inst7|inst~0_combout $end
$var wire 1 I" inst15|inst|inst3~q $end
$var wire 1 J" inst15|inst|inst2~feeder_combout $end
$var wire 1 K" inst15|inst|inst2~q $end
$var wire 1 L" inst|inst4|inst2|inst3|inst5~1_combout $end
$var wire 1 M" inst|inst2|inst10|inst~1_combout $end
$var wire 1 N" inst|inst2|inst10|inst~2_combout $end
$var wire 1 O" inst|inst2|inst10|inst~0_combout $end
$var wire 1 P" inst|inst17~0_combout $end
$var wire 1 Q" inst15|inst|inst4~q $end
$var wire 1 R" inst|inst2|inst2|inst~1_combout $end
$var wire 1 S" inst|inst4|inst2|inst3|inst5~0_combout $end
$var wire 1 T" inst|inst4|inst2|inst4|inst5~0_combout $end
$var wire 1 U" inst|inst2|inst2|inst~2_combout $end
$var wire 1 V" inst|inst2|inst2|inst~0_combout $end
$var wire 1 W" inst15|inst|inst6~q $end
$var wire 1 X" inst|inst2|inst8|inst~1_combout $end
$var wire 1 Y" inst|inst4|inst3|inst|inst5~0_combout $end
$var wire 1 Z" inst|inst4|inst3|inst|inst5~1_combout $end
$var wire 1 [" inst|inst4|inst3|inst1|inst5~0_combout $end
$var wire 1 \" inst|inst2|inst8|inst~2_combout $end
$var wire 1 ]" inst|inst2|inst8|inst~0_combout $end
$var wire 1 ^" inst15|inst|inst5~q $end
$var wire 1 _" inst|inst2|inst4|inst~1_combout $end
$var wire 1 `" inst|inst2|inst4|inst~2_combout $end
$var wire 1 a" inst|inst2|inst4|inst~0_combout $end
$var wire 1 b" inst|inst17~1_combout $end
$var wire 1 c" inst|inst17~2_combout $end
$var wire 1 d" inst19|inst~q $end
$var wire 1 e" inst4|inst~1_combout $end
$var wire 1 f" inst4|inst~2_combout $end
$var wire 1 g" inst4|inst13~1_combout $end
$var wire 1 h" inst13|inst|inst4~q $end
$var wire 1 i" inst3|Mux0_rtl_0|auto_generated|ram_block1a4 $end
$var wire 1 j" inst14|inst|inst3~4_combout $end
$var wire 1 k" inst10|inst4|inst10|inst~0_combout $end
$var wire 1 l" inst10|inst|inst3~q $end
$var wire 1 m" inst8|inst10|inst~0_combout $end
$var wire 1 n" inst13|inst|inst3~q $end
$var wire 1 o" inst3|Mux0_rtl_0|auto_generated|ram_block1a3 $end
$var wire 1 p" inst14|inst|inst4~4_combout $end
$var wire 1 q" inst1|inst15|inst7|inst~0_combout $end
$var wire 1 r" inst17|inst|inst4~q $end
$var wire 1 s" inst4|inst14~6_combout $end
$var wire 1 t" inst4|inst14~3_combout $end
$var wire 1 u" inst4|inst14~14_combout $end
$var wire 1 v" inst10|inst4|inst1|inst~0_combout $end
$var wire 1 w" inst10|inst|inst~q $end
$var wire 1 x" inst10|inst4|inst6|inst~0_combout $end
$var wire 1 y" inst10|inst|inst8~q $end
$var wire 1 z" inst10|inst2|inst8|inst~combout $end
$var wire 1 {" inst10|inst4|inst7|inst~0_combout $end
$var wire 1 |" inst10|inst|inst2~q $end
$var wire 1 }" inst8|inst7|inst~0_combout $end
$var wire 1 ~" inst13|inst|inst2~q $end
$var wire 1 !# inst3|Mux0_rtl_0|auto_generated|ram_block1a6 $end
$var wire 1 "# inst14|inst|inst8~4_combout $end
$var wire 1 ## inst8|inst6|inst~0_combout $end
$var wire 1 $# inst13|inst|inst8~q $end
$var wire 1 %# inst3|Mux0_rtl_0|auto_generated|ram_block1a0~portadataout $end
$var wire 1 &# inst14|inst|inst7~4_combout $end
$var wire 1 '# inst17|inst|inst7~feeder_combout $end
$var wire 1 (# inst17|inst|inst7~q $end
$var wire 1 )# inst11|inst|inst1|inst9|inst5~0_combout $end
$var wire 1 *# inst1|inst11|inst2~q $end
$var wire 1 +# inst1|inst15|inst8|inst5~0_combout $end
$var wire 1 ,# inst8|inst1|inst~0_combout $end
$var wire 1 -# inst13|inst|inst~q $end
$var wire 1 .# inst3|Mux0_rtl_0|auto_generated|ram_block1a1 $end
$var wire 1 /# inst14|inst|inst6~4_combout $end
$var wire 1 0# inst17|inst|inst6~q $end
$var wire 1 1# inst4|inst13~0_combout $end
$var wire 1 2# inst4|inst46~0_combout $end
$var wire 1 3# inst4|inst46~1_combout $end
$var wire 1 4# inst4|inst46~3_combout $end
$var wire 1 5# inst4|inst46~4_combout $end
$var wire 1 6# inst1|inst|inst3|inst2~combout $end
$var wire 1 7# inst1|inst11|inst3~q $end
$var wire 1 8# inst1|inst|inst4|inst2~combout $end
$var wire 1 9# inst1|inst11|inst4~q $end
$var wire 1 :# inst5~4_combout $end
$var wire 1 ;# inst5~5_combout $end
$var wire 1 <# inst14|inst|inst7~3_q $end
$var wire 1 =# inst14|inst|inst5~1_q $end
$var wire 1 ># inst3|Mux0_rtl_0|auto_generated|ram_block1a2 $end
$var wire 1 ?# inst14|inst|inst5~4_combout $end
$var wire 1 @# inst17|inst|inst5~q $end
$var wire 1 A# inst4|inst35~0_combout $end
$var wire 1 B# inst4|inst35~1_combout $end
$var wire 1 C# inst|inst4|inst3|inst3|inst5~0_combout $end
$var wire 1 D# inst|inst4|inst3|inst3|inst5~1_combout $end
$var wire 1 E# inst|inst2|inst9|inst~0_combout $end
$var wire 1 F# inst|inst2|inst9|inst~1_combout $end
$var wire 1 G# inst|inst2|inst9|inst~2_combout $end
$var wire 1 H# inst18|inst~q $end
$var wire 1 I# inst17|inst|inst3~q $end
$var wire 1 J# inst17|inst|inst2~q $end
$var wire 1 K# inst17|inst|inst8~feeder_combout $end
$var wire 1 L# inst17|inst|inst8~q $end
$var wire 1 M# inst17|inst|inst~feeder_combout $end
$var wire 1 N# inst17|inst|inst~q $end
$var wire 1 O# inst|inst2|inst6|inst~1_combout $end
$var wire 1 P# inst|inst2|inst6|inst~2_combout $end
$var wire 1 Q# inst|inst2|inst6|inst~0_combout $end
$var wire 1 R# inst15|inst|inst8~q $end
$var wire 1 S# inst3|Mux0_rtl_0|auto_generated|ram_block1a0_PORTADATAOUT_bus [17] $end
$var wire 1 T# inst3|Mux0_rtl_0|auto_generated|ram_block1a0_PORTADATAOUT_bus [16] $end
$var wire 1 U# inst3|Mux0_rtl_0|auto_generated|ram_block1a0_PORTADATAOUT_bus [15] $end
$var wire 1 V# inst3|Mux0_rtl_0|auto_generated|ram_block1a0_PORTADATAOUT_bus [14] $end
$var wire 1 W# inst3|Mux0_rtl_0|auto_generated|ram_block1a0_PORTADATAOUT_bus [13] $end
$var wire 1 X# inst3|Mux0_rtl_0|auto_generated|ram_block1a0_PORTADATAOUT_bus [12] $end
$var wire 1 Y# inst3|Mux0_rtl_0|auto_generated|ram_block1a0_PORTADATAOUT_bus [11] $end
$var wire 1 Z# inst3|Mux0_rtl_0|auto_generated|ram_block1a0_PORTADATAOUT_bus [10] $end
$var wire 1 [# inst3|Mux0_rtl_0|auto_generated|ram_block1a0_PORTADATAOUT_bus [9] $end
$var wire 1 \# inst3|Mux0_rtl_0|auto_generated|ram_block1a0_PORTADATAOUT_bus [8] $end
$var wire 1 ]# inst3|Mux0_rtl_0|auto_generated|ram_block1a0_PORTADATAOUT_bus [7] $end
$var wire 1 ^# inst3|Mux0_rtl_0|auto_generated|ram_block1a0_PORTADATAOUT_bus [6] $end
$var wire 1 _# inst3|Mux0_rtl_0|auto_generated|ram_block1a0_PORTADATAOUT_bus [5] $end
$var wire 1 `# inst3|Mux0_rtl_0|auto_generated|ram_block1a0_PORTADATAOUT_bus [4] $end
$var wire 1 a# inst3|Mux0_rtl_0|auto_generated|ram_block1a0_PORTADATAOUT_bus [3] $end
$var wire 1 b# inst3|Mux0_rtl_0|auto_generated|ram_block1a0_PORTADATAOUT_bus [2] $end
$var wire 1 c# inst3|Mux0_rtl_0|auto_generated|ram_block1a0_PORTADATAOUT_bus [1] $end
$var wire 1 d# inst3|Mux0_rtl_0|auto_generated|ram_block1a0_PORTADATAOUT_bus [0] $end
$upscope $end
$upscope $end
$enddefinitions $end
#0
$dumpvars
0!
1"
0#
0$
0,
0+
0*
0)
0(
0'
0&
0%
04
03
02
01
00
0/
0.
0-
15
06
07
0?
0>
0=
0<
0;
0:
09
08
0G
0F
0E
0D
0C
0B
0A
0@
0O
0N
0M
0L
0K
0J
0I
0H
0P
0Q
xR
0S
1T
xU
1V
1W
1X
1Y
0Z
1[
0\
0]
0^
0_
0`
0a
0b
0c
0d
0e
0f
0g
0h
0i
0j
0k
0l
0m
0n
0o
0p
0q
0r
0s
0t
0u
0v
1w
1x
1y
1z
1{
1|
1}
1~
1!!
1"!
1#!
1$!
1%!
1&!
1'!
1(!
1)!
1*!
1+!
1,!
1-!
1.!
1/!
10!
01!
02!
13!
14!
15!
16!
17!
18!
19!
1:!
1;!
1<!
1=!
1>!
0?!
0@!
0A!
0B!
0C!
0D!
0E!
0F!
0G!
0H!
0I!
0J!
0K!
0L!
0M!
0N!
0O!
1P!
0Q!
0R!
0S!
0T!
0U!
0V!
0W!
0X!
0Y!
0Z!
0[!
0\!
0]!
0^!
0_!
0`!
0a!
0b!
0c!
0d!
0e!
0f!
0g!
0h!
0i!
0j!
0k!
1l!
1m!
0n!
0o!
0p!
0q!
0r!
1s!
0t!
0u!
1v!
0w!
0x!
1y!
0z!
0{!
0|!
0}!
0~!
0!"
0""
1#"
0$"
0%"
0&"
0'"
0("
0)"
0*"
0+"
0,"
0-"
0."
0/"
00"
01"
02"
03"
04"
05"
06"
07"
08"
09"
0:"
0;"
0<"
0="
0>"
0?"
0@"
0A"
0B"
0C"
0D"
0E"
0F"
0G"
0H"
0I"
0J"
0K"
0L"
0M"
0N"
0O"
0P"
0Q"
0R"
0S"
0T"
0U"
0V"
0W"
0X"
0Y"
0Z"
0["
0\"
0]"
0^"
0_"
0`"
0a"
0b"
1c"
0d"
0e"
0f"
1g"
0h"
0i"
0j"
0k"
0l"
0m"
0n"
0o"
0p"
0q"
0r"
1s"
1t"
1u"
0v"
0w"
0x"
0y"
0z"
0{"
0|"
0}"
0~"
0!#
0"#
0##
0$#
0%#
0&#
0'#
0(#
1)#
0*#
0+#
0,#
0-#
0.#
0/#
00#
01#
02#
03#
04#
05#
06#
07#
08#
09#
0:#
0;#
0<#
0=#
0>#
0?#
0@#
0A#
0B#
0C#
0D#
0E#
0F#
0G#
0H#
0I#
0J#
0K#
0L#
0M#
0N#
0O#
0P#
0Q#
0R#
0d#
0c#
0b#
0a#
0`#
0_#
0^#
0]#
0\#
0[#
0Z#
0Y#
0X#
0W#
0V#
0U#
0T#
0S#
$end
#20000
1#
1$
1n!
11!
1o!
0R
1q!
1r!
1*#
1t!
1;#
16#
0y!
0v!
0Y
0u"
0g"
1v"
1&"
0P!
05
#20001
1b#
1>#
#40000
0$
01!
1R
0q!
0r!
#60000
1$
11!
0R
1q!
1r!
1<#
17#
0*#
1w"
1?#
0;#
1q"
1y!
1v!
1x"
0v"
1a!
1?
1,#
1`"
1u"
1X!
14
1a"
1v"
0&"
1b"
0c"
#80000
0$
01!
1R
0q!
0r!
#100000
1$
11!
0R
1q!
1r!
1=#
0<#
1*#
1@#
18#
06#
0q"
19"
0v!
11#
0s"
1e"
1C"
0#"
1B!
1J
1:"
1f"
1:#
1g"
1P!
15
#120000
0$
01!
1R
0q!
0r!
#140000
1$
11!
0R
1q!
1r!
19#
07#
0*#
1-#
1;#
09"
0y!
1v
1v!
1O!
1G
0:"
0u"
0g"
0v"
1&"
0P!
05
#160000
0$
01!
1R
0q!
0r!
#180000
1$
11!
0R
1q!
1r!
1<#
1*#
1y"
0w"
0;#
16#
1+#
1y!
0v!
1v"
1`!
0a!
1>
0?
1~!
1##
0,#
1u"
1Y!
1W!
0X!
1P
13
04
0##
1,"
1g"
0v"
0&"
0W!
1S!
1P!
03
1/
15
#180001
1d#
0b#
1%#
0>#
1&#
0?#
1F#
1'#
0`"
15"
0,"
1G#
0a"
1Q!
0S!
1-
0/
0b"
#200000
0$
01!
1R
0q!
0r!
#220000
1$
11!
0R
1q!
1r!
0=#
0<#
17#
0*#
1w!
0-#
16"
1;#
0+#
1v!
0O!
1H!
0G
1@
0~!
0Y!
0P
1##
05"
0g"
1W!
0Q!
0P!
13
0-
05
#240000
0$
01!
1R
0q!
0r!
#260000
1$
11!
0R
1q!
1r!
1<#
1*#
0;#
08#
06#
1D"
1@"
0v!
15#
#260001
0d#
1`#
1^#
0%#
1i"
1!#
0&#
1j"
1"#
0F#
0'#
1N"
1P#
1K#
0G#
1O"
1Q#
1P"
#280000
0$
01!
1R
0q!
0r!
#300000
1$
11!
0R
1q!
1r!
0<#
09#
07#
0*#
1|!
1x!
0w!
1R#
1I"
0D"
0v
1Y
0@"
1v!
1O#
1B"
1T"
1M"
1j!
1h!
1+
1)
05#
1g"
1P!
15
#320000
0$
01!
1R
0q!
0r!
#340000
1$
11!
0R
1q!
1r!
1*#
1$#
06"
1;#
16#
0y!
0v!
0Y
1N!
0H!
1F
0@
0u"
0g"
1v"
1&"
0P!
05
#360000
0$
01!
1R
0q!
0r!
#380000
1$
11!
0R
1q!
1r!
1<#
17#
0*#
1w"
0;#
1q"
1y!
1v!
1z"
0x"
0v"
1a!
1?
1,#
1u"
1{"
1X!
14
1v"
0&"
#380001
1c#
1b#
0`#
0^#
1.#
1>#
0i"
0!#
1/#
1?#
0j"
0"#
1X"
1`"
0T"
0N"
0P#
0K#
0B"
1\"
1a"
0O"
0Q#
1]"
1b"
0P"
#400000
0$
01!
1R
0q!
0r!
#420000
1$
11!
0R
1q!
1r!
1=#
0<#
1*#
0|!
0x!
1u!
10#
18#
06#
0q"
19"
0v!
1A#
12#
01#
0e"
0C"
1v
0[
1A!
1I
1:"
13#
0f"
0:#
1@"
1g"
1;"
14#
1P!
15
0g"
1P#
0O#
1F#
0`"
1_"
1R"
1N"
0M"
1F"
1\
15#
0P!
05
1Q#
0P#
1G#
0a"
1`"
1U"
1O"
0N"
1G"
1?"
08#
0Q#
1a"
1V"
1P"
0O"
1H"
1J"
#440000
0$
01!
1R
0q!
0r!
#460000
1$
11!
0R
1q!
1r!
07#
0*#
0R#
1H#
1^"
1W"
1Q"
1K"
0I"
1A"
0@"
09"
1Y
1v!
1O#
1E#
1C#
0_"
1["
1D#
0X"
0R"
0F"
1M"
0\
0j!
1d!
1?!
1f!
1e!
1g!
1i!
0h!
1k!
0+
1%
17
1'
1&
1(
1*
0)
1,
04#
0:"
1P#
0F#
0`"
0\"
0U"
0G"
1N"
0?"
1g"
05#
0;"
1Q#
0G#
0a"
0]"
0V"
0H"
1O"
1P!
15
0P#
0O#
0E#
1`"
1_"
1X"
0N"
0M"
0b"
0J"
0Q#
1a"
1\"
0O"
1b"
1]"
0P"
#480000
0$
01!
1R
0q!
0r!
#500000
1$
11!
0R
1q!
1r!
1*#
1-#
1;#
16#
0y!
0v!
0Y
1O!
1G
0u"
0g"
0v"
1&"
0P!
05
#520000
0$
01!
1R
0q!
0r!
#540000
1$
11!
0R
1q!
1r!
1<#
17#
0*#
1|"
0y"
0w"
0;#
1q"
1y!
1v!
1v"
1_!
0`!
0a!
1=
0>
0?
1}"
0##
0,#
1u"
1V!
0W!
0X!
12
03
04
0v"
0&"
#540001
0c#
1a#
0.#
1o"
0/#
1p"
0X"
1Z"
1R"
0\"
0_"
1U"
0]"
1V"
#560000
0$
01!
1R
0q!
0r!
#580000
1$
11!
0R
1q!
1r!
0<#
1*#
1z!
0u!
00#
1r"
18#
06#
0q"
1@"
19"
0v!
0A#
02#
11#
1e"
1C"
0v
03#
1s"
1Z
0A!
1C!
0I
1K
1f"
1:#
0@"
1g"
1P!
15
#600000
0$
01!
1R
0q!
0r!
#620000
1$
11!
0R
1q!
1r!
19#
07#
0*#
0-#
0$#
1~"
1;#
09"
0y!
1v
1v!
0O!
0N!
1M!
0G
0F
1E
0u"
0g"
1v"
1&"
0P!
05
#640000
0$
01!
1R
0q!
0r!
#660000
1$
11!
0R
1q!
1r!
1<#
1*#
1w"
0;#
16#
1+#
1y!
0v!
1x"
0v"
1a!
1?
1~!
1,#
1u"
1Y!
1X!
1P
14
0,#
0}"
1,"
1}!
1g"
1v"
0&"
0X!
0V!
1S!
1T!
1P!
04
02
1/
10
15
#660001
1d#
0b#
0a#
1]#
1%#
0>#
0o"
1="
1&#
0?#
0p"
1>"
1F#
1'#
0`"
0Z"
0R"
1O#
1M#
1\
15"
0,"
0}!
1,#
1G#
0a"
0C#
1_"
0["
0U"
1?"
1Q!
0S!
0T!
1X!
1-
0/
00
14
0D#
0V"
1E#
#680000
0$
01!
1R
0q!
0r!
#700000
1$
11!
0R
1q!
1r!
0=#
0<#
17#
0*#
1<"
0z!
1w!
1-#
0~"
16"
1;#
0+#
1v!
1O!
0M!
1H!
1G
0E
1@
0~!
0Y!
0P
1}"
05"
0g"
1V!
0Q!
0P!
12
0-
05
#720000
0$
01!
1R
0q!
0r!
#740000
1$
11!
0R
1q!
1r!
1<#
1*#
0;#
08#
06#
1D"
1@"
0v!
15#
1E"
1P#
0F#
1`"
1X"
1R"
1F"
0\
1Q#
0G#
1a"
1\"
1U"
1G"
0?"
1]"
1V"
1H"
1P"
1J"
#740001
0d#
0%#
0&#
1F#
0'#
1G#
#760000
0$
01!
1R
0q!
0r!
#780000
1$
11!
0R
1q!
1r!
0<#
09#
07#
0*#
0w!
1R#
0A"
0D"
0v
1Y
0@"
1v!
1\
1j!
0k!
1+
0,
05#
0E"
1?"
1g"
0P#
0F#
0`"
0X"
0R"
0F"
1P!
15
0Q#
0G#
0a"
0\"
0U"
0G"
0]"
0V"
0H"
0P"
0J"
#800000
0$
01!
1R
0q!
0r!
#820000
1$
11!
0R
1q!
1r!
1*#
1~"
06"
1;#
16#
0y!
0v!
0Y
1M!
0H!
1E
0@
0u"
0g"
0v"
1&"
0P!
05
#840000
0$
01!
1R
0q!
0r!
#860000
1$
11!
0R
1q!
1r!
1<#
17#
0*#
1y"
0w"
0;#
1q"
1y!
1v!
1v"
1`!
0a!
1>
0?
1##
0,#
1u"
1W!
0X!
13
04
0v"
0&"
#860001
1b#
1a#
0]#
1>#
1o"
0="
1?#
1p"
0>"
1C#
1`"
1["
1Z"
1R"
0M#
0\
1D#
1a"
0_"
1U"
0?"
0E#
1V"
#880000
0$
01!
1R
0q!
0r!
#900000
1$
11!
0R
1q!
1r!
1=#
0<#
1*#
0<"
1z!
18#
06#
0q"
19"
0v!
1g"
1P!
15
