simulation/qsim/UNITL.msim.vcd
$comment
	File created using the following command:
		vcd file UNITL.msim.vcd -direction
$end
$date
	Sun Aug 04 19:08:15 2024
$end
$version
	ModelSim Version 10.1d
$end
$timescale
	1ps
$end
$scope module Temporizador_vlg_vec_tst $end
$var reg 1 ! clk $end
$var reg 1 " goto_t0 $end
$var reg 1 # HLT $end
$var wire 1 $ t [7] $end
$var wire 1 % t [6] $end
$var wire 1 & t [5] $end
$var wire 1 ' t [4] $end
$var wire 1 ( t [3] $end
$var wire 1 ) t [2] $end
$var wire 1 * t [1] $end
$var wire 1 + t [0] $end
$var wire 1 , sampler $end
$scope module i1 $end
$var wire 1 - gnd $end
$var wire 1 . vcc $end
$var wire 1 / unknown $end
$var tri1 1 0 devclrn $end
$var tri1 1 1 devpor $end
$var tri1 1 2 devoe $end
$var wire 1 3 clk~input_o $end
$var wire 1 4 clk~inputclkctrl_outclk $end
$var wire 1 5 t[7]~output_o $end
$var wire 1 6 t[6]~output_o $end
$var wire 1 7 t[5]~output_o $end
$var wire 1 8 t[4]~output_o $end
$var wire 1 9 t[3]~output_o $end
$var wire 1 : t[2]~output_o $end
$var wire 1 ; t[1]~output_o $end
$var wire 1 < t[0]~output_o $end
$var wire 1 = goto_t0~input_o $end
$var wire 1 > HLT~input_o $end
$var wire 1 ? inst9~0_combout $end
$var wire 1 @ inst10~combout $end
$var wire 1 A inst11|inst2~q $end
$var wire 1 B inst8~0_combout $end
$var wire 1 C inst11|inst3~q $end
$var wire 1 D inst9~1_combout $end
$var wire 1 E inst11|inst4~q $end
$var wire 1 F inst15|inst9|inst5~0_combout $end
$var wire 1 G inst15|inst9|inst~0_combout $end
$var wire 1 H inst15|inst8|inst5~0_combout $end
$var wire 1 I inst15|inst8|inst~0_combout $end
$var wire 1 J inst15|inst7|inst5~0_combout $end
$var wire 1 K inst15|inst7|inst~0_combout $end
$var wire 1 L inst15|inst6|inst5~0_combout $end
$var wire 1 M inst15|inst6|inst~combout $end
$upscope $end
$upscope $end
$enddefinitions $end
#0
$dumpvars
0!
0"
0#
1+
0*
0)
0(
0'
0&
0%
0$
x,
0-
1.
x/
10
11
12
03
04
05
06
07
08
09
0:
0;
1<
0=
0>
1?
1@
0A
0B
0C
0D
0E
0F
0G
0H
0I
0J
0K
0L
0M
$end
#10000
1!
13
14
0,
1A
1M
1B
0@
1L
0<
1;
0+
1*
#20000
0!
03
04
1,
#30000
1!
13
14
0,
1C
0A
1@
0L
1K
0;
1:
0*
1)
#40000
0!
03
04
1,
#50000
1!
13
14
0,
1A
1D
0B
0@
0K
1J
0:
19
0)
1(
#60000
0!
03
04
1,
#70000
1!
13
14
0,
1E
0C
0A
1@
0J
1I
09
18
0(
1'
#80000
0!
03
04
1,
#90000
1!
13
14
0,
1A
1B
0@
0I
1H
08
17
0'
1&
#100000
0!
03
04
1,
#110000
1!
13
14
0,
1C
0A
1@
0H
1G
07
16
0&
1%
#120000
0!
03
04
1,
#130000
1"
1!
1=
13
14
0,
0B
0@
0?
0D
1A
0G
1F
06
15
0%
1$
#140000
0!
03
04
1,
#150000
1!
13
14
0,
0E
0C
0A
0M
0F
1<
05
1+
0$
#160000
0!
03
04
1,
#170000
1!
13
14
0,
#180000
0!
03
04
1,
#190000
1!
13
14
0,
#200000
0"
0!
0=
03
04
1,
1@
1?
#210000
1!
13
14
0,
1A
1M
1B
0@
1L
0<
1;
0+
1*
#220000
0!
03
04
1,
#230000
1!
13
14
0,
1C
0A
1@
0L
1K
0;
1:
0*
1)
#240000
0!
03
04
1,
#250000
1!
13
14
0,
1A
1D
0B
0@
0K
1J
0:
19
0)
1(
#260000
0!
03
04
1,
#270000
1!
13
14
0,
1E
0C
0A
1@
0J
1I
09
18
0(
1'
#280000
0!
03
04
1,
#290000
1!
13
14
0,
1A
1B
0@
0I
1H
08
17
0'
1&
#300000
0!
03
04
1,
#310000
1!
13
14
0,
1C
0A
1@
0H
1G
07
16
0&
1%
#320000
0!
03
04
1,
#330000
1!
13
14
0,
1A
0D
0B
0@
0G
1F
06
15
0%
1$
#340000
0!
03
04
1,
#350000
1!
13
14
0,
0E
0C
0A
0M
1@
0F
1<
05
1+
0$
#360000
0!
03
04
1,
#370000
1!
13
14
0,
1A
1M
1B
0@
1L
0<
1;
0+
1*
#380000
0!
03
04
1,
#390000
1!
13
14
0,
1C
0A
1@
0L
1K
0;
1:
0*
1)
#400000
0!
03
04
1,
#410000
1!
13
14
0,
1A
1D
0B
0@
0K
1J
0:
19
0)
1(
#420000
0!
03
04
1,
#430000
1!
13
14
0,
1E
0C
0A
1@
0J
1I
09
18
0(
1'
#440000
0!
03
04
1,
#450000
1!
13
14
0,
1A
1B
0@
0I
1H
08
17
0'
1&
#460000
0!
03
04
1,
#470000
1!
13
14
0,
1C
0A
1@
0H
1G
07
16
0&
1%
#480000
0!
03
04
1,
#490000
1!
13
14
0,
1A
0D
0B
0@
0G
1F
06
15
0%
1$
#500000
0!
03
04
1,
#510000
1!
13
14
0,
0E
0C
0A
0M
1@
0F
1<
05
1+
0$
#520000
0!
03
04
1,
#530000
1!
13
14
0,
1A
1M
1B
0@
1L
0<
1;
0+
1*
#540000
0!
03
04
1,
#550000
1!
13
14
0,
1C
0A
1@
0L
1K
0;
1:
0*
1)
#560000
0!
03
04
1,
#570000
1!
13
14
0,
1A
1D
0B
0@
0K
1J
0:
19
0)
1(
#580000
0!
03
04
1,
#590000
1!
13
14
0,
1E
0C
0A
1@
0J
1I
09
18
0(
1'
#600000
0!
03
04
1,
#610000
1!
13
14
0,
1A
1B
0@
0I
1H
08
17
0'
1&
#620000
0!
03
04
1,
#630000
1!
13
14
0,
1C
0A
1@
0H
1G
07
16
0&
1%
#640000
0!
03
04
1,
#650000
1!
13
14
0,
1A
0D
0B
0@
0G
1F
06
15
0%
1$
#660000
0!
03
04
1,
#670000
1!
13
14
0,
0E
0C
0A
0M
1@
0F
1<
05
1+
0$
#680000
0!
03
04
1,
#690000
1!
13
14
0,
1A
1M
1B
0@
1L
0<
1;
0+
1*
#700000
0!
03
04
1,
#710000
1!
13
14
0,
1C
0A
1@
0L
1K
0;
1:
0*
1)
#720000
0!
03
04
1,
#730000
1!
13
14
0,
1A
1D
0B
0@
0K
1J
0:
19
0)
1(
#740000
0!
03
04
1,
#750000
1!
13
14
0,
1E
0C
0A
1@
0J
1I
09
18
0(
1'
#760000
0!
03
04
1,
#770000
1!
13
14
0,
1A
1B
0@
0I
1H
08
17
0'
1&
#780000
0!
03
04
1,
#790000
1!
13
14
0,
1C
0A
1@
0H
1G
07
16
0&
1%
#800000
0!
03
04
1,
#810000
1!
13
14
0,
1A
0D
0B
0@
0G
1F
06
15
0%
1$
#820000
0!
03
04
1,
#830000
1!
13
14
0,
0E
0C
0A
0M
1@
0F
1<
05
1+
0$
#840000
0!
03
04
1,
#850000
1!
13
14
0,
1A
1M
1B
0@
1L
0<
1;
0+
1*
#860000
0!
03
04
1,
#870000
1!
13
14
0,
1C
0A
1@
0L
1K
0;
1:
0*
1)
#880000
0!
03
04
1,
#890000
1!
13
14
0,
1A
1D
0B
0@
0K
1J
0:
19
0)
1(
#900000
0!
03
04
1,
#910000
1!
13
14
0,
1E
0C
0A
1@
0J
1I
09
18
0(
1'
#920000
0!
03
04
1,
#930000
1!
13
14
0,
1A
1B
0@
0I
1H
08
17
0'
1&
#940000
0!
03
04
1,
#950000
1!
13
14
0,
1C
0A
1@
0H
1G
07
16
0&
1%
#960000
0!
03
04
1,
#970000
1!
13
14
0,
1A
0D
0B
0@
0G
1F
06
15
0%
1$
#980000
0!
03
04
1,
#990000
1!
13
14
0,
0E
0C
0A
0M
1@
0F
1<
05
1+
0$
