simulation/qsim/UNITL.msim.vcd
$comment
	File created using the following command:
		vcd file UNITL.msim.vcd -direction
$end
$date
	Sun Aug 18 17:56:23 2024
$end
$version
	ModelSim Version 10.1d
$end
$timescale
	1ps
$end
$scope module NEANDER_vlg_vec_tst $end
$var reg 1 ! CLK_IN $end
$var reg 1 " DEBUG $end
$var reg 1 # Reset $end
$var reg 1 $ step $end
$var wire 1 % AC [7] $end
$var wire 1 & AC [6] $end
$var wire 1 ' AC [5] $end
$var wire 1 ( AC [4] $end
$var wire 1 ) AC [3] $end
$var wire 1 * AC [2] $end
$var wire 1 + AC [1] $end
$var wire 1 , AC [0] $end
$var wire 1 - charge_RDM $end
$var wire 1 . charge_RI $end
$var wire 1 / HLT $end
$var wire 1 0 N $end
$var wire 1 1 NOP $end
$var wire 1 2 PC [7] $end
$var wire 1 3 PC [6] $end
$var wire 1 4 PC [5] $end
$var wire 1 5 PC [4] $end
$var wire 1 6 PC [3] $end
$var wire 1 7 PC [2] $end
$var wire 1 8 PC [1] $end
$var wire 1 9 PC [0] $end
$var wire 1 : RDM [7] $end
$var wire 1 ; RDM [6] $end
$var wire 1 < RDM [5] $end
$var wire 1 = RDM [4] $end
$var wire 1 > RDM [3] $end
$var wire 1 ? RDM [2] $end
$var wire 1 @ RDM [1] $end
$var wire 1 A RDM [0] $end
$var wire 1 B RI [7] $end
$var wire 1 C RI [6] $end
$var wire 1 D RI [5] $end
$var wire 1 E RI [4] $end
$var wire 1 F RI [3] $end
$var wire 1 G RI [2] $end
$var wire 1 H RI [1] $end
$var wire 1 I RI [0] $end
$var wire 1 J Z $end
$var wire 1 K sampler $end
$scope module i1 $end
$var wire 1 L gnd $end
$var wire 1 M vcc $end
$var wire 1 N unknown $end
$var tri1 1 O devclrn $end
$var tri1 1 P devpor $end
$var tri1 1 Q devoe $end
$var wire 1 R inst7|inst1|inst3|inst1|inst3~q $end
$var wire 1 S inst7|inst1|inst3|inst1|inst~q $end
$var wire 1 T inst7|inst1|inst3|inst|inst3~q $end
$var wire 1 U inst7|inst1|inst3|inst|inst~q $end
$var wire 1 V inst7|inst1|inst5|inst1|inst3~q $end
$var wire 1 W inst7|inst1|inst5|inst1|inst~q $end
$var wire 1 X inst7|inst1|inst5|inst|inst3~q $end
$var wire 1 Y inst7|inst1|inst5|inst|inst~q $end
$var wire 1 Z inst7|inst1|inst4|inst1|inst3~q $end
$var wire 1 [ inst7|inst1|inst4|inst1|inst~q $end
$var wire 1 \ inst7|inst1|inst4|inst|inst3~q $end
$var wire 1 ] inst7|inst1|inst4|inst|inst~q $end
$var wire 1 ^ inst7|inst1|inst2|inst1|inst3~q $end
$var wire 1 _ inst7|inst1|inst2|inst1|inst~q $end
$var wire 1 ` inst7|inst1|inst2|inst|inst3~q $end
$var wire 1 a inst7|inst1|inst2|inst|inst~q $end
$var wire 1 b inst7|inst1|inst1|inst1|inst3~q $end
$var wire 1 c inst7|inst1|inst1|inst1|inst~q $end
$var wire 1 d inst7|inst1|inst1|inst|inst3~q $end
$var wire 1 e inst7|inst1|inst1|inst|inst~q $end
$var wire 1 f inst7|inst1|inst|inst1|inst3~q $end
$var wire 1 g inst7|inst1|inst|inst1|inst~q $end
$var wire 1 h inst7|inst1|inst|inst|inst3~q $end
$var wire 1 i inst7|inst1|inst|inst|inst~q $end
$var wire 1 j inst7|inst1|inst3|inst1|inst3~0_combout $end
$var wire 1 k inst7|inst1|inst3|inst1|inst~0_combout $end
$var wire 1 l inst7|inst1|inst3|inst|inst3~0_combout $end
$var wire 1 m inst7|inst1|inst3|inst|inst~0_combout $end
$var wire 1 n inst7|inst1|inst5|inst1|inst3~0_combout $end
$var wire 1 o inst7|inst1|inst5|inst1|inst~0_combout $end
$var wire 1 p inst7|inst1|inst5|inst|inst3~0_combout $end
$var wire 1 q inst7|inst1|inst5|inst|inst~0_combout $end
$var wire 1 r inst7|inst1|inst4|inst1|inst3~0_combout $end
$var wire 1 s inst7|inst1|inst4|inst1|inst~0_combout $end
$var wire 1 t inst7|inst1|inst4|inst|inst3~0_combout $end
$var wire 1 u inst7|inst1|inst4|inst|inst~0_combout $end
$var wire 1 v inst7|inst1|inst2|inst1|inst3~0_combout $end
$var wire 1 w inst7|inst1|inst2|inst1|inst~0_combout $end
$var wire 1 x inst7|inst1|inst2|inst|inst3~0_combout $end
$var wire 1 y inst7|inst1|inst2|inst|inst~0_combout $end
$var wire 1 z inst7|inst1|inst1|inst1|inst3~0_combout $end
$var wire 1 { inst7|inst1|inst1|inst1|inst~0_combout $end
$var wire 1 | inst7|inst1|inst1|inst|inst3~0_combout $end
$var wire 1 } inst7|inst1|inst1|inst|inst~0_combout $end
$var wire 1 ~ inst7|inst1|inst|inst1|inst3~0_combout $end
$var wire 1 !! inst7|inst1|inst|inst1|inst~0_combout $end
$var wire 1 "! inst7|inst1|inst|inst|inst3~0_combout $end
$var wire 1 #! inst7|inst1|inst|inst|inst~0_combout $end
$var wire 1 $! CLK_IN~input_o $end
$var wire 1 %! inst7|inst1|inst3|inst1|inst3~feeder_combout $end
$var wire 1 &! inst7|inst1|inst3|inst|inst3~feeder_combout $end
$var wire 1 '! inst7|inst1|inst5|inst1|inst3~feeder_combout $end
$var wire 1 (! inst7|inst1|inst5|inst|inst3~feeder_combout $end
$var wire 1 )! inst7|inst1|inst4|inst|inst3~feeder_combout $end
$var wire 1 *! inst7|inst1|inst2|inst1|inst3~feeder_combout $end
$var wire 1 +! inst7|inst1|inst2|inst|inst3~feeder_combout $end
$var wire 1 ,! inst7|inst1|inst1|inst1|inst3~feeder_combout $end
$var wire 1 -! inst7|inst1|inst1|inst|inst3~feeder_combout $end
$var wire 1 .! inst7|inst1|inst|inst1|inst3~feeder_combout $end
$var wire 1 /! inst7|inst1|inst|inst|inst3~feeder_combout $end
$var wire 1 0! inst7|inst1|inst|inst|inst~feeder_combout $end
$var wire 1 1! N~output_o $end
$var wire 1 2! RI[7]~output_o $end
$var wire 1 3! RI[6]~output_o $end
$var wire 1 4! RI[5]~output_o $end
$var wire 1 5! RI[4]~output_o $end
$var wire 1 6! RI[3]~output_o $end
$var wire 1 7! RI[2]~output_o $end
$var wire 1 8! RI[1]~output_o $end
$var wire 1 9! RI[0]~output_o $end
$var wire 1 :! charge_RI~output_o $end
$var wire 1 ;! RDM[7]~output_o $end
$var wire 1 <! RDM[6]~output_o $end
$var wire 1 =! RDM[5]~output_o $end
$var wire 1 >! RDM[4]~output_o $end
$var wire 1 ?! RDM[3]~output_o $end
$var wire 1 @! RDM[2]~output_o $end
$var wire 1 A! RDM[1]~output_o $end
$var wire 1 B! RDM[0]~output_o $end
$var wire 1 C! charge_RDM~output_o $end
$var wire 1 D! PC[7]~output_o $end
$var wire 1 E! PC[6]~output_o $end
$var wire 1 F! PC[5]~output_o $end
$var wire 1 G! PC[4]~output_o $end
$var wire 1 H! PC[3]~output_o $end
$var wire 1 I! PC[2]~output_o $end
$var wire 1 J! PC[1]~output_o $end
$var wire 1 K! PC[0]~output_o $end
$var wire 1 L! Z~output_o $end
$var wire 1 M! NOP~output_o $end
$var wire 1 N! HLT~output_o $end
$var wire 1 O! AC[7]~output_o $end
$var wire 1 P! AC[6]~output_o $end
$var wire 1 Q! AC[5]~output_o $end
$var wire 1 R! AC[4]~output_o $end
$var wire 1 S! AC[3]~output_o $end
$var wire 1 T! AC[2]~output_o $end
$var wire 1 U! AC[1]~output_o $end
$var wire 1 V! AC[0]~output_o $end
$var wire 1 W! inst1|inst11|inst2~0_combout $end
$var wire 1 X! inst1|inst11|inst2~q $end
$var wire 1 Y! inst1|inst11|inst3~0_combout $end
$var wire 1 Z! inst1|inst11|inst3~q $end
$var wire 1 [! inst1|inst15|inst7|inst~combout $end
$var wire 1 \! step~input_o $end
$var wire 1 ]! DEBUG~input_o $end
$var wire 1 ^! inst7|inst~0_combout $end
$var wire 1 _! Reset~input_o $end
$var wire 1 `! Reset~inputclkctrl_outclk $end
$var wire 1 a! inst7|inst~q $end
$var wire 1 b! inst9|inst~combout $end
$var wire 1 c! inst9|inst~clkctrl_outclk $end
$var wire 1 d! inst10|inst|inst~0_combout $end
$var wire 1 e! inst10|inst|inst~q $end
$var wire 1 f! inst10|inst|inst8~0_combout $end
$var wire 1 g! inst10|inst|inst8~q $end
$var wire 1 h! inst10|inst|inst2~0_combout $end
$var wire 1 i! inst10|inst|inst2~1_combout $end
$var wire 1 j! inst10|inst|inst2~q $end
$var wire 1 k! inst10|inst|inst4~0_combout $end
$var wire 1 l! inst10|inst|inst4~q $end
$var wire 1 m! inst10|inst|inst6~0_combout $end
$var wire 1 n! inst10|inst|inst6~1_combout $end
$var wire 1 o! inst10|inst|inst6~q $end
$var wire 1 p! inst10|inst|inst5~0_combout $end
$var wire 1 q! inst10|inst|inst7~0_combout $end
$var wire 1 r! inst10|inst|inst7~q $end
$var wire 1 s! inst10|inst|inst5~1_combout $end
$var wire 1 t! inst10|inst|inst5~q $end
$var wire 1 u! inst10|inst|inst3~0_combout $end
$var wire 1 v! inst10|inst|inst3~q $end
$upscope $end
$upscope $end
$enddefinitions $end
#0
$dumpvars
0!
1"
0#
0$
0,
0+
0*
0)
0(
0'
0&
0%
0-
0.
0/
00
11
09
08
07
06
05
04
03
02
0A
0@
0?
0>
0=
0<
0;
0:
0I
0H
0G
0F
0E
0D
0C
0B
0J
xK
0L
1M
xN
1O
1P
1Q
0R
0S
0T
0U
0V
0W
0X
0Y
0Z
0[
0\
0]
0^
0_
0`
0a
0b
0c
0d
0e
0f
0g
0h
0i
1j
1k
1l
1m
1n
1o
1p
1q
1r
1s
1t
1u
1v
1w
1x
1y
1z
1{
1|
1}
1~
1!!
1"!
1#!
0$!
1%!
1&!
1'!
1(!
1)!
1*!
1+!
1,!
1-!
1.!
1/!
10!
01!
02!
03!
04!
05!
06!
07!
08!
09!
0:!
0;!
0<!
0=!
0>!
0?!
0@!
0A!
0B!
0C!
0D!
0E!
0F!
0G!
0H!
0I!
0J!
0K!
0L!
1M!
0N!
0O!
0P!
0Q!
0R!
0S!
0T!
0U!
0V!
1W!
0X!
0Y!
0Z!
0[!
0\!
1]!
1^!
0_!
0`!
0a!
0b!
0c!
0d!
0e!
0f!
0g!
0h!
0i!
0j!
0k!
0l!
1m!
0n!
0o!
0p!
0q!
0r!
0s!
0t!
0u!
0v!
$end
#5000
1$
1\!
0K
1b!
1c!
1X!
1d!
1Y!
0W!
#10000
0$
0\!
1K
0b!
0c!
#15000
1$
1\!
0K
1b!
1c!
1Z!
0X!
0d!
1W!
1[!
1:!
1.
#20000
1#
0$
1_!
0\!
1`!
1K
0b!
0c!
#25000
1$
1\!
0K
1b!
1c!
1X!
0Y!
0W!
0[!
0:!
0.
#30000
0$
0\!
1K
0b!
0c!
#35000
1$
1\!
0K
1b!
1c!
0Z!
0X!
1W!
#40000
0$
0\!
1K
0b!
0c!
#45000
1$
1\!
0K
1b!
1c!
1X!
1d!
1Y!
0W!
#50000
0$
0\!
1K
0b!
0c!
#55000
1$
1\!
0K
1b!
1c!
1Z!
0X!
1e!
1W!
1K!
19
1[!
1:!
1.
#60000
0$
0\!
1K
0b!
0c!
#65000
1$
1\!
0K
1b!
1c!
1X!
0Y!
0W!
0[!
0:!
0.
#70000
0$
0\!
1K
0b!
0c!
#75000
1$
1\!
0K
1b!
1c!
0Z!
0X!
1W!
#80000
0$
0\!
1K
0b!
0c!
#85000
1$
1\!
0K
1b!
1c!
1X!
1f!
0d!
1Y!
0W!
#90000
0$
0\!
1K
0b!
0c!
#95000
1$
1\!
0K
1b!
1c!
1Z!
0X!
1g!
0e!
1W!
1J!
0K!
18
09
1[!
1:!
1.
#100000
0$
0\!
1K
0b!
0c!
#105000
1$
1\!
0K
1b!
1c!
1X!
0Y!
0W!
0[!
0:!
0.
#110000
0$
0\!
1K
0b!
0c!
#115000
1$
1\!
0K
1b!
1c!
0Z!
0X!
1W!
#120000
0$
0\!
1K
0b!
0c!
#125000
1$
1\!
0K
1b!
1c!
1X!
1d!
1Y!
0W!
#130000
0$
0\!
1K
0b!
0c!
#135000
1$
1\!
0K
1b!
1c!
1Z!
0X!
1e!
1W!
1K!
19
1[!
1:!
1.
#140000
0$
0\!
1K
0b!
0c!
#145000
1$
1\!
0K
1b!
1c!
1X!
0Y!
0W!
0[!
0:!
0.
#150000
0$
0\!
1K
0b!
0c!
#155000
1$
1\!
0K
1b!
1c!
0Z!
0X!
1W!
#160000
0$
0\!
1K
0b!
0c!
#165000
1$
1\!
0K
1b!
1c!
1X!
1h!
0f!
0d!
1Y!
0W!
1i!
#170000
0$
0\!
1K
0b!
0c!
#175000
1$
1\!
0K
1b!
1c!
1Z!
0X!
1j!
0g!
0e!
0h!
1W!
1u!
0i!
1I!
0J!
0K!
17
08
09
1[!
0u!
1i!
1:!
1.
#180000
0$
0\!
1K
0b!
0c!
#185000
1$
1\!
0K
1b!
1c!
1X!
0Y!
0W!
0[!
0:!
0.
#190000
0$
0\!
1K
0b!
0c!
#195000
1$
1\!
0K
1b!
1c!
0Z!
0X!
1W!
#200000
0$
0\!
1K
0b!
0c!
#205000
1$
1\!
0K
1b!
1c!
1X!
1d!
1Y!
0W!
#210000
0$
0\!
1K
0b!
0c!
#215000
1$
1\!
0K
1b!
1c!
1Z!
0X!
1e!
1W!
1K!
19
1[!
1:!
1.
#220000
0$
0\!
1K
0b!
0c!
#225000
1$
1\!
0K
1b!
1c!
1X!
0Y!
0W!
0[!
0:!
0.
#230000
0$
0\!
1K
0b!
0c!
#235000
1$
1\!
0K
1b!
1c!
0Z!
0X!
1W!
#240000
0$
0\!
1K
0b!
0c!
#245000
1$
1\!
0K
1b!
1c!
1X!
1f!
0d!
1Y!
0W!
#250000
0$
0\!
1K
0b!
0c!
#255000
1$
1\!
0K
1b!
1c!
1Z!
0X!
1g!
0e!
1W!
1J!
0K!
18
09
1[!
1:!
1.
#260000
0$
0\!
1K
0b!
0c!
#265000
1$
1\!
0K
1b!
1c!
1X!
0Y!
0W!
0[!
0:!
0.
#270000
0$
0\!
1K
0b!
0c!
#275000
1$
1\!
0K
1b!
1c!
0Z!
0X!
1W!
#280000
0$
0\!
1K
0b!
0c!
#285000
1$
1\!
0K
1b!
1c!
1X!
1d!
1Y!
0W!
#290000
0$
0\!
1K
0b!
0c!
#295000
1$
1\!
0K
1b!
1c!
1Z!
0X!
1e!
1W!
1K!
19
1[!
1:!
1.
#300000
0$
0\!
1K
0b!
0c!
#305000
1$
1\!
0K
1b!
1c!
1X!
0Y!
0W!
0[!
0:!
0.
#310000
0$
0\!
1K
0b!
0c!
#315000
1$
1\!
0K
1b!
1c!
0Z!
0X!
1W!
#320000
0$
0\!
1K
0b!
0c!
#325000
1$
1\!
0K
1b!
1c!
1X!
1h!
0f!
0d!
1Y!
0W!
1u!
0i!
#330000
0$
0\!
1K
0b!
0c!
#335000
1$
1\!
0K
1b!
1c!
1Z!
0X!
1v!
0j!
0g!
0e!
0h!
1W!
1i!
1H!
0I!
0J!
0K!
16
07
08
09
1[!
0i!
1:!
1.
#340000
0$
0\!
1K
0b!
0c!
#345000
1$
1\!
0K
1b!
1c!
1X!
0Y!
0W!
0[!
0:!
0.
#350000
0$
0\!
1K
0b!
0c!
#355000
1$
1\!
0K
1b!
1c!
0Z!
0X!
1W!
#360000
0$
0\!
1K
0b!
0c!
#365000
1$
1\!
0K
1b!
1c!
1X!
1d!
1Y!
0W!
#370000
0$
0\!
1K
0b!
0c!
#375000
1$
1\!
0K
1b!
1c!
1Z!
0X!
1e!
1W!
1K!
19
1[!
1:!
1.
#380000
0$
0\!
1K
0b!
0c!
#385000
1$
1\!
0K
1b!
1c!
1X!
0Y!
0W!
0[!
0:!
0.
#390000
0$
0\!
1K
0b!
0c!
#395000
1$
1\!
0K
1b!
1c!
0Z!
0X!
1W!
#400000
0$
0\!
1K
0b!
0c!
#405000
1$
1\!
0K
1b!
1c!
1X!
1f!
0d!
1Y!
0W!
#410000
0$
0\!
1K
0b!
0c!
#415000
1$
1\!
0K
1b!
1c!
1Z!
0X!
1g!
0e!
1W!
1J!
0K!
18
09
1[!
1:!
1.
#420000
0$
0\!
1K
0b!
0c!
#425000
1$
1\!
0K
1b!
1c!
1X!
0Y!
0W!
0[!
0:!
0.
#430000
0$
0\!
1K
0b!
0c!
#435000
1$
1\!
0K
1b!
1c!
0Z!
0X!
1W!
#440000
0$
0\!
1K
0b!
0c!
#445000
1$
1\!
0K
1b!
1c!
1X!
1d!
1Y!
0W!
#450000
0$
0\!
1K
0b!
0c!
#455000
1$
1\!
0K
1b!
1c!
1Z!
0X!
1e!
1W!
1K!
19
1[!
1:!
1.
#460000
0$
0\!
1K
0b!
0c!
#465000
1$
1\!
0K
1b!
1c!
1X!
0Y!
0W!
0[!
0:!
0.
#470000
0$
0\!
1K
0b!
0c!
#475000
1$
1\!
0K
1b!
1c!
0Z!
0X!
1W!
#480000
0$
0\!
1K
0b!
0c!
#485000
1$
1\!
0K
1b!
1c!
1X!
1h!
0f!
0d!
1Y!
0W!
1i!
#490000
0$
0\!
1K
0b!
0c!
#495000
1$
1\!
0K
1b!
1c!
1Z!
0X!
1j!
0g!
0e!
0h!
1W!
0u!
1k!
0i!
1I!
0J!
0K!
17
08
09
1[!
1u!
0k!
1i!
1:!
1.
#500000
0$
0\!
1K
0b!
0c!
#505000
1$
1\!
0K
1b!
1c!
1X!
0Y!
0W!
0[!
0:!
0.
#510000
0$
0\!
1K
0b!
0c!
#515000
1$
1\!
0K
1b!
1c!
0Z!
0X!
1W!
#520000
0$
0\!
1K
0b!
0c!
#525000
1$
1\!
0K
1b!
1c!
1X!
1d!
1Y!
0W!
#530000
0$
0\!
1K
0b!
0c!
#535000
1$
1\!
0K
1b!
1c!
1Z!
0X!
1e!
1W!
1K!
19
1[!
1:!
1.
#540000
0$
0\!
1K
0b!
0c!
#545000
1$
1\!
0K
1b!
1c!
1X!
0Y!
0W!
0[!
0:!
0.
#550000
0$
0\!
1K
0b!
0c!
#555000
1$
1\!
0K
1b!
1c!
0Z!
0X!
1W!
#560000
0$
0\!
1K
0b!
0c!
#565000
1$
1\!
0K
1b!
1c!
1X!
1f!
0d!
1Y!
0W!
#570000
0$
0\!
1K
0b!
0c!
#575000
1$
1\!
0K
1b!
1c!
1Z!
0X!
1g!
0e!
1W!
1J!
0K!
18
09
1[!
1:!
1.
#580000
0$
0\!
1K
0b!
0c!
#585000
1$
1\!
0K
1b!
1c!
1X!
0Y!
0W!
0[!
0:!
0.
#590000
0$
0\!
1K
0b!
0c!
#595000
1$
1\!
0K
1b!
1c!
0Z!
0X!
1W!
#600000
0$
0\!
1K
0b!
0c!
#605000
1$
1\!
0K
1b!
1c!
1X!
1d!
1Y!
0W!
#610000
0$
0\!
1K
0b!
0c!
#615000
1$
1\!
0K
1b!
1c!
1Z!
0X!
1e!
1W!
1K!
19
1[!
1:!
1.
#620000
0$
0\!
1K
0b!
0c!
#625000
1$
1\!
0K
1b!
1c!
1X!
0Y!
0W!
0[!
0:!
0.
#630000
0$
0\!
1K
0b!
0c!
#635000
1$
1\!
0K
1b!
1c!
0Z!
0X!
1W!
#640000
0$
0\!
1K
0b!
0c!
#645000
1$
1\!
0K
1b!
1c!
1X!
1h!
0f!
0d!
1Y!
0W!
0u!
1k!
0i!
#650000
0$
0\!
1K
0b!
0c!
#655000
1$
1\!
0K
1b!
1c!
1Z!
0X!
0v!
1l!
0j!
0g!
0e!
0h!
1W!
1i!
0H!
1G!
0I!
0J!
0K!
06
15
07
08
09
1[!
0i!
1:!
1.
#660000
0$
0\!
1K
0b!
0c!
#665000
1$
1\!
0K
1b!
1c!
1X!
0Y!
0W!
0[!
0:!
0.
#670000
0$
0\!
1K
0b!
0c!
#675000
1$
1\!
0K
1b!
1c!
0Z!
0X!
1W!
#680000
0$
0\!
1K
0b!
0c!
#685000
1$
1\!
0K
1b!
1c!
1X!
1d!
1Y!
0W!
#690000
0$
0\!
1K
0b!
0c!
#695000
1$
1\!
0K
1b!
1c!
1Z!
0X!
1e!
1W!
1K!
19
1[!
1:!
1.
#700000
0$
0\!
1K
0b!
0c!
#705000
1$
1\!
0K
1b!
1c!
1X!
0Y!
0W!
0[!
0:!
0.
#710000
0$
0\!
1K
0b!
0c!
#715000
1$
1\!
0K
1b!
1c!
0Z!
0X!
1W!
#720000
0$
0\!
1K
0b!
0c!
#725000
1$
1\!
0K
1b!
1c!
1X!
1f!
0d!
1Y!
0W!
#730000
0$
0\!
1K
0b!
0c!
#735000
1$
1\!
0K
1b!
1c!
1Z!
0X!
1g!
0e!
1W!
1J!
0K!
18
09
1[!
1:!
1.
#740000
0$
0\!
1K
0b!
0c!
#745000
1$
1\!
0K
1b!
1c!
1X!
0Y!
0W!
0[!
0:!
0.
#750000
0$
0\!
1K
0b!
0c!
#755000
1$
1\!
0K
1b!
1c!
0Z!
0X!
1W!
#760000
0$
0\!
1K
0b!
0c!
#765000
1$
1\!
0K
1b!
1c!
1X!
1d!
1Y!
0W!
#770000
0$
0\!
1K
0b!
0c!
#775000
1$
1\!
0K
1b!
1c!
1Z!
0X!
1e!
1W!
1K!
19
1[!
1:!
1.
#780000
0$
0\!
1K
0b!
0c!
#785000
1$
1\!
0K
1b!
1c!
1X!
0Y!
0W!
0[!
0:!
0.
#790000
0$
0\!
1K
0b!
0c!
#795000
1$
1\!
0K
1b!
1c!
0Z!
0X!
1W!
#800000
0$
0\!
1K
0b!
0c!
#805000
1$
1\!
0K
1b!
1c!
1X!
1h!
0f!
0d!
1Y!
0W!
1i!
#810000
0$
0\!
1K
0b!
0c!
#815000
1$
1\!
0K
1b!
1c!
1Z!
0X!
1j!
0g!
0e!
0h!
1W!
1u!
0i!
1I!
0J!
0K!
17
08
09
1[!
0u!
1i!
1:!
1.
#820000
0$
0\!
1K
0b!
0c!
#825000
1$
1\!
0K
1b!
1c!
1X!
0Y!
0W!
0[!
0:!
0.
#830000
0$
0\!
1K
0b!
0c!
#835000
1$
1\!
0K
1b!
1c!
0Z!
0X!
1W!
#840000
0$
0\!
1K
0b!
0c!
#845000
1$
1\!
0K
1b!
1c!
1X!
1d!
1Y!
0W!
#850000
0$
0\!
1K
0b!
0c!
#855000
1$
1\!
0K
1b!
1c!
1Z!
0X!
1e!
1W!
1K!
19
1[!
1:!
1.
#860000
0$
0\!
1K
0b!
0c!
#865000
1$
1\!
0K
1b!
1c!
1X!
0Y!
0W!
0[!
0:!
0.
#870000
0$
0\!
1K
0b!
0c!
#875000
1$
1\!
0K
1b!
1c!
0Z!
0X!
1W!
#880000
0$
0\!
1K
0b!
0c!
#885000
1$
1\!
0K
1b!
1c!
1X!
1f!
0d!
1Y!
0W!
#890000
0$
0\!
1K
0b!
0c!
#895000
1$
1\!
0K
1b!
1c!
1Z!
0X!
1g!
0e!
1W!
1J!
0K!
18
09
1[!
1:!
1.
#900000
0$
0\!
1K
0b!
0c!
#905000
1$
1\!
0K
1b!
1c!
1X!
0Y!
0W!
0[!
0:!
0.
#910000
0$
0\!
1K
0b!
0c!
#915000
1$
1\!
0K
1b!
1c!
0Z!
0X!
1W!
#920000
0$
0\!
1K
0b!
0c!
#925000
1$
1\!
0K
1b!
1c!
1X!
1d!
1Y!
0W!
#930000
0$
0\!
1K
0b!
0c!
#935000
1$
1\!
0K
1b!
1c!
1Z!
0X!
1e!
1W!
1K!
19
1[!
1:!
1.
#940000
0$
0\!
1K
0b!
0c!
#945000
1$
1\!
0K
1b!
1c!
1X!
0Y!
0W!
0[!
0:!
0.
#950000
0$
0\!
1K
0b!
0c!
#955000
1$
1\!
0K
1b!
1c!
0Z!
0X!
1W!
#960000
0$
0\!
1K
0b!
0c!
#965000
1$
1\!
0K
1b!
1c!
1X!
1h!
0f!
0d!
1Y!
0W!
1u!
0i!
#970000
0$
0\!
1K
0b!
0c!
#975000
1$
1\!
0K
1b!
1c!
1Z!
0X!
1v!
0j!
0g!
0e!
0h!
1W!
1i!
1H!
0I!
0J!
0K!
16
07
08
09
1[!
0i!
1:!
1.
#980000
0$
0\!
1K
0b!
0c!
#985000
1$
1\!
0K
1b!
1c!
1X!
0Y!
0W!
0[!
0:!
0.
#990000
0$
0\!
1K
0b!
0c!
#995000
1$
1\!
0K
1b!
1c!
0Z!
0X!
1W!
